-1.01170271247821, -1.09474828816042
-0.868386450090376, -1.09996058864142
-0.724187910141594, -1.09722868407708
-0.579263158519441, -1.09770069640202
-0.434458942457701, -1.09761873752
-0.289633689246468, -1.0976330000148
-0.144822220256186, -1.09763053110481
1.03415577972762e-15, -1.09763103933982
0.144822220256188, -1.09763053110481
0.28963368924647, -1.0976330000148
0.434458942457703, -1.09761873752
0.579263158519443, -1.09770069640202
0.724187910141596, -1.09722868407708
0.868386450090378, -1.09996058864141
1.01170271247821, -1.09474828816042
-1.01170260939147, -0.958246508983535
-0.868386343310058, -0.953034428171825
-0.724187836559375, -0.955766512525188
-0.579263107349788, -0.955294623159391
-0.434458908428863, -0.955376665690532
-0.289633668479891, -0.955362457031273
-0.14482221042513, -0.955364955997186
8.65693220570494e-16, -0.955364457420062
0.144822210425132, -0.955364955997185
0.289633668479892, -0.955362457031272
0.434458908428865, -0.955376665690531
0.57926310734979, -0.955294623159389
0.724187836559377, -0.955766512525187
0.86838634331006, -0.953034428171824
1.01170260939147, -0.958246508983534
-1.02733181044437, -0.825494930105688
-0.886693509367668, -0.80186222046324
0.886693509367669, -0.801862220463241
1.02733181044437, -0.825494930105686
-1.05783863757178, -0.691194314752961
-0.919117163888169, -0.656941584945329
-0.782267414609932, -0.617724064259272
-0.646116769495452, -0.579903737643927
-0.508880435894933, -0.543661422219756
0.50888043589493, -0.543661422219754
0.646116769495448, -0.579903737643927
0.782267414609929, -0.617724064259273
0.919117163888167, -0.656941584945329
1.05783863757178, -0.691194314752958
-1.09429056288306, -0.554265256685353
-0.957054192832956, -0.518023238730586
-0.820914850248799, -0.480203068177892
-0.684054014216069, -0.440985478030606
-0.545332651657929, -0.406732398695305
0.545332651657926, -0.406732398695304
0.684054014216066, -0.440985478030607
0.820914850248795, -0.480203068177893
0.957054192832951, -0.518023238730585
1.09429056288306, -0.55426525668535
-0.716479118253837, -0.29606555229461
-0.57584085455959, -0.272432573268692
0.57584085455959, -0.272432573268691
0.716479118253836, -0.296065552294612
-0.734786546856496, -0.144893356562197
-0.591470287315575, -0.139681044130319
0.591470287315577, -0.139681044130319
0.734786546856497, -0.144893356562198
-0.734786655060409, 0.00203281400813454
-0.591470390609088, -0.00317926955334065
0.591470390609091, -0.00317926955334131
0.734786655060411, 0.00203281400813388
-0.716479490630708, 0.153216161451571
-0.575841189554509, 0.129583451807437
0.57584118955451, 0.129583451807435
0.716479490630708, 0.153216161451571
-1.09429256410507, 0.411405817208901
-0.957056230507629, 0.37516350178365
-0.820916807609164, 0.337343175171548
-0.684055836112908, 0.298125654484707
-0.54533436242899, 0.263872924676092
0.545334362428988, 0.263872924676089
0.684055836112906, 0.298125654484707
0.82091680760916, 0.337343175171549
0.957056230507625, 0.375163501783651
1.09429256410507, 0.4114058172089
-1.05784034834207, 0.548334840733352
-0.919118985783986, 0.514081761396962
-0.782269371970297, 0.474864171252928
-0.646118807170126, 0.437044000696992
-0.508882437116942, 0.400801982743306
0.508882437116938, 0.400801982743303
0.646118807170122, 0.437044000696991
0.782269371970293, 0.474864171252929
0.919118985783983, 0.514081761396962
1.05784034834207, 0.548334840733351
-1.02733214544052, 0.682634666161085
-0.886693881746994, 0.659001687135984
0.886693881746994, 0.659001687135985
1.02733214544052, 0.682634666161084
-1.0117027126842, 0.815397337783877
-0.868386451513894, 0.810185028103044
-0.724187910141645, 0.812916937265293
-0.579263158519433, 0.812444924940249
-0.434458942457703, 0.812526883822281
-0.289633689246468, 0.812512621327478
-0.144822220256186, 0.812515090237475
1.03415586286367e-15, 0.812514582002459
0.144822220256188, 0.812515090237475
0.28963368924647, 0.812512621327479
0.434458942457705, 0.812526883822282
0.579263158519435, 0.81244492494025
0.724187910141646, 0.812916937265294
0.868386451513895, 0.810185028103045
1.0117027126842, 0.815397337783877
-1.01170260918557, 0.951887974476405
-0.868386341886649, 0.957100046088848
-0.72418783655943, 0.954367966335324
-0.57926310734978, 0.954839855701234
-0.434458908428865, 0.954757813170073
-0.28963366847989, 0.954772021829336
-0.14482221042513, 0.954769522863422
8.6569326132705e-16, 0.954770021440546
0.144822210425132, 0.954769522863422
0.289633668479892, 0.954772021829337
0.434458908428867, 0.954757813170074
0.579263107349782, 0.954839855701235
0.724187836559432, 0.954367966335325
0.868386341886651, 0.957100046088849
1.01170260918558, 0.951887974476406