-0.96675945674012, -1.33112450892652
-0.826827757834237, -1.33127280252287
-0.686824822157173, -1.32519643156724
-0.545220497520188, -1.32771258396893
-0.403664427198173, -1.3309538653296
-0.261893952870375, -1.33580924396099
-0.119941774245124, -1.34160137572465
0.0222425391411474, -1.34789772634654
0.164671710757202, -1.35420258958477
0.307352130756794, -1.36003370866271
0.450320261797127, -1.36487124813772
0.593504027493108, -1.36847890809597
0.737162641494461, -1.36913445645016
0.879621875574336, -1.37393099975694
1.01982853780888, -1.36914380725267
-0.969054725770476, -1.18380537052941
-0.828848068847799, -1.17901766405583
-0.686388793390609, -1.18381382666015
-0.542730146647782, -1.18446903543725
-0.399546339300187, -1.18807642404502
-0.256578163999642, -1.19291376599037
-0.113897699655834, -1.19874476572164
0.0285315141098241, -1.20504959014642
0.17071586607166, -1.21134598298119
0.312668079230399, -1.21713823659917
0.454438584403056, -1.22199381357576
0.595994683434844, -1.22523536481832
0.73759903340018, -1.22775185262277
0.877602013128052, -1.2216758554917
1.0175337241321, -1.22182466222854
-0.982090809833981, -1.04162981412041
-0.849230095905453, -1.00986441382858
0.891037756032401, -1.0524401223884
1.02520463022893, -1.07866832527249
-1.02813541317613, -0.922115074719984
-0.906879977131945, -0.836949744288881
-0.819203283742231, -0.691410708914352
-0.741156668216557, -0.579206490677252
-0.637173538520136, -0.490007704146841
0.655167100611726, -0.543587381832026
0.763186746635938, -0.627902546333509
0.846467634823711, -0.736331980403167
0.94089633351561, -0.877483148394368
1.06590688151636, -0.957012982113731
-1.11334849622951, -0.815584682791795
-1.00936547385307, -0.72638574417037
-0.931331299053866, -0.614181104920293
-0.843642053277421, -0.468642340283573
-0.722386493789437, -0.383477253609134
0.735389112159039, -0.433202804424946
0.860399774287977, -0.512732383008566
0.95484102929001, -0.653883867389315
1.03810948250408, -0.762313133483531
1.14612902595412, -0.84662845827506
-0.901293183594929, -0.295729042242994
-0.768432190394363, -0.263964539210418
0.776092525916741, -0.31154943533177
0.910259639353951, -0.337776726267752
-0.921674432477916, -0.126575935443225
-0.781467772281191, -0.121788728761094
0.783762913853375, -0.168392860881446
0.923694612629576, -0.168541167981285
-0.923694297053673, 0.0256792350086843
-0.783762585139657, 0.0255304229053977
0.78146764386604, -0.0210737155754947
0.92167430056827, -0.0162860036647418
-0.910258849417997, 0.194929021623154
-0.776091975223881, 0.168700818734077
0.768431263619562, 0.121115899706066
0.901291977545399, 0.152881300002874
-1.14612920865892, 0.703767703298512
-1.03810956263891, 0.619452538794723
-0.954841105821006, 0.511023400920781
-0.86039997575591, 0.369871936733007
-0.735389427755069, 0.29034210301828
0.72238695646016, 0.240616580231993
0.84364239250431, 0.325781910656787
0.931331517267833, 0.471320649867138
1.00936570142263, 0.583525164270419
1.1133488311154, 0.672723950803644
-1.0659071971116, 0.814152280705591
-0.940896534982201, 0.734622702113169
-0.846467711354707, 0.593471513934633
-0.763186826770762, 0.4850419516447
-0.655167283316525, 0.400726626855478
0.637173873406023, 0.347146972158689
0.741156895786117, 0.436345910777301
0.819203501956198, 0.548550253861197
0.906880316357739, 0.694089314656418
1.0281358758461, 0.779254401341351
-1.02520378335296, 0.935805649802321
-0.8910366699182, 0.909578358867444
0.849229186041922, 0.867002612712173
0.982090179240059, 0.898767115743625
-1.01753369159942, 1.07897628312859
-0.877601993735779, 1.07882798139463
-0.737599057974315, 1.08490436738921
-0.595994733337281, 1.08238821498726
-0.454438663015238, 1.07914693362662
-0.312668188687422, 1.07429155499521
-0.170716010062162, 1.06849942323153
-0.0285316966758898, 1.06220307260961
0.113897474940156, 1.05589820937135
0.256577894939734, 1.05006709029338
0.399546025980046, 1.04522955081833
0.542729791675999, 1.04162189086001
0.686388405677336, 1.04096634250602
0.828847640757773, 1.0361697838233
0.969054301172191, 1.04095698506884
-1.01982866622614, 1.22628136291595
-0.879622007483333, 1.23106906065354
-0.73716273302602, 1.22627291343188
-0.593504086283197, 1.225617704655
-0.45032027893563, 1.22201031604715
-0.307352103635105, 1.21717297410177
-0.164671639291312, 1.21134197437047
-0.0222424255256623, 1.20503714994565
0.119941926436174, 1.19874075711085
0.261894139594922, 1.19294850349285
0.403664644767597, 1.18809292651624
0.545220743799414, 1.18485137527372
0.686825093764814, 1.18233488746899
0.826828073409219, 1.1884108695547
0.9667597854559, 1.18826207095036