-0.955694128904012, -1.18996869051446
-0.814017942051311, -1.18987195651099
-0.674127111134258, -1.18554154089906
-0.533206407273439, -1.18792921287778
-0.392203392777639, -1.19226249606769
-0.250955695690288, -1.19873862516148
-0.109459300889707, -1.20659925237467
0.0323563054924278, -1.21519132355696
0.174527758648802, -1.22380313532262
0.317079228024274, -1.23172638765068
0.4600480328197, -1.23824540618801
0.603371113662125, -1.24283777258027
0.747155682134179, -1.24417512863581
0.890393295396438, -1.24605950373557
1.03240406637233, -1.23876805108779
-0.959093690659961, -1.04883229298103
-0.817082940173674, -1.04154035201998
-0.673845296521321, -1.04342430634785
-0.5300606936205, -1.0447612895171
-0.386737566358871, -1.04935335355206
-0.243768710210339, -1.05587215003492
-0.101217189018335, -1.06379526770182
0.0409543126924987, -1.07240703607338
0.182769962075603, -1.08099915590768
0.324266393583355, -1.08885992153368
0.465514121772011, -1.095336273649
0.606517163901931, -1.09966985653169
0.747437892659363, -1.10205789486813
0.887328760354105, -1.09772788971878
1.02900495258733, -1.09763164337325
-0.974214304248686, -0.913349527712554
-0.836882611691958, -0.884016501402273
0.89693295400297, -0.940340539755694
1.03607008985738, -0.960404927546883
-1.01437069786808, -0.788325282990125
-0.881888339238183, -0.727804620577419
-0.761440798514761, -0.633891461007716
-0.64924816820338, -0.5541863935818
-0.526842115371867, -0.488635926753753
0.557219249638859, -0.571616150705069
0.684435124362448, -0.627507563462107
0.802764078542688, -0.698096054155059
0.930323062481552, -0.781957856313279
1.06699721727685, -0.832229284108625
-1.07817497571075, -0.665501664627417
-0.955768964421659, -0.599951103080533
-0.843587812706686, -0.520245537975406
-0.723128715278648, -0.426332814708906
-0.590646315961175, -0.365812285468899
0.611330489425208, -0.44409271160999
0.748004680572579, -0.494363984104488
0.87557522916058, -0.578226198224518
0.993892712851795, -0.648814339646151
1.12110854880686, -0.704705864833926
-0.76813542808979, -0.270121916850429
-0.630803591343043, -0.240789490336775
0.642258561057119, -0.315918443854108
0.781395797557166, -0.335982215684657
-0.787934512965228, -0.112598067609843
-0.645923743322634, -0.105306603779471
0.649323219816264, -0.178691630085141
0.790999407934911, -0.178594906128302
-0.790999049978696, 0.035733560402437
-0.649322856485247, 0.0358298037024317
0.645923657632377, -0.0375552323026319
0.787934407874165, -0.0302632882097222
-0.781395282712849, 0.193133418329756
-0.642258146859318, 0.173069030535424
0.630802616396915, 0.097940043972306
0.768134308952443, 0.127273070285866
-1.12110855943291, 0.56184529636811
-0.993892684713154, 0.50595388360964
-0.875575222245649, 0.435365820568642
-0.748004746590774, 0.351503590760767
-0.611330591795373, 0.301232162965804
0.590646650424038, 0.222951777687
0.723129009053051, 0.283472440097319
0.843588041494431, 0.377385172029492
0.955769180091942, 0.457090667092329
1.07817523291983, 0.522641133922114
-1.06699731964656, 0.689368735463189
-0.930323128498339, 0.63909746296538
-0.802764071627758, 0.555235676499183
-0.684435096223807, 0.484647107425596
-0.557219260264912, 0.428755582239253
0.526842372580946, 0.34577539604845
0.649248383873663, 0.411325957593596
0.761441027302506, 0.491031095061801
0.881888633011471, 0.58494424596158
1.01437103233052, 0.645464775206969
-1.03606924801423, 0.81754300322153
-0.896932011515754, 0.797479231391907
0.836881920202824, 0.741155143828829
0.974213756948031, 0.7704875703416
-1.02900501690103, 0.954782327999664
-0.887328830044048, 0.95487905500232
-0.747437999559727, 0.959209477859746
-0.606517295698768, 0.956821805880886
-0.465514281202889, 0.952488522691
-0.324266584115477, 0.946012393597192
-0.182770189314864, 0.938151766383977
-0.0409545829327224, 0.929559695201665
0.101216870223632, 0.920947883435957
0.24376833959906, 0.913024631107855
0.386737144394422, 0.906505612570481
0.530060225236759, 0.901913246178151
0.673844793708753, 0.900575890122692
0.817082407437955, 0.898691507209663
0.959093177323399, 0.905982967907951
-1.03240415206399, 1.0959062150054
-0.890393400487253, 1.1031981479189
-0.747155757301831, 1.10131420140807
-0.603371154401063, 1.09997721823891
-0.460048027139523, 1.09538515420387
-0.317079170991054, 1.08886635772097
-0.174527649799095, 1.08094324005402
-0.0323561480882807, 1.07233147168243
0.109459501294829, 1.0637393518481
0.250955932802615, 1.05587858622207
0.39220366099133, 1.04940223410674
0.53320670312133, 1.04506865122406
0.674127431878911, 1.04268061288748
0.814018300006921, 1.04701061078787
0.955694492236375, 1.04710686413146