-0.884006507300959, -1.32156101033509
-0.745982400067519, -1.31307043143315
-0.610320179328331, -1.30325176747688
-0.473304217012599, -1.30731875694513
-0.336615402262399, -1.31765915509061
-0.199887647565006, -1.33476178338904
-0.0628440947274322, -1.35678753646954
0.0750082851765255, -1.38159553361699
0.214172045102781, -1.40662758798339
0.355001599510274, -1.42924756078834
0.49757115800608, -1.4469919330518
0.641431784352512, -1.45820221442329
0.786167681560862, -1.46053058956688
0.929433558684923, -1.46150906902188
1.06842324165932, -1.45252664728235
-0.893189715823475, -1.1694050379879
-0.754200061557991, -1.16042208541557
-0.610934208627391, -1.16140008714817
-0.466198301338436, -1.16372793360967
-0.322337605627443, -1.17493772582103
-0.179767941261435, -1.19268170930821
-0.0389382706692717, -1.21530143928855
0.100225590158636, -1.24033342112242
0.238078039896701, -1.2651415194423
0.375121628664676, -1.28716753210466
0.511849392975372, -1.30427054734028
0.64853820371171, -1.31461141587866
0.785554152708382, -1.31867890722654
0.921216376362814, -1.30886069779823
1.05924052257051, -1.30037064602663
-0.907668416389183, -1.02150818646563
-0.776459177596985, -0.989366071870273
0.919022453836172, -1.13721478186046
1.05358420320199, -1.15039848762586
-0.953956785339335, -0.900676444176598
-0.835535417507141, -0.81040096576751
-0.756964087810005, -0.651933792275089
-0.687656769644122, -0.532964535187817
-0.587618715202871, -0.439395128621117
0.651452634415337, -0.620447426720186
0.764174249582798, -0.69835684136211
0.850161385643668, -0.806060656455915
0.951204792451169, -0.951651653323608
1.081568571123, -1.0236558269412
-1.04260075250556, -0.796972181124881
-0.942562830875893, -0.703402602394182
-0.873267555923057, -0.584432177378461
-0.794684060547491, -0.425965983877226
-0.676262538067107, -0.335690799498969
0.723884670055695, -0.504767845445372
0.854248560575763, -0.576771693717753
0.955304142826751, -0.722363734882039
1.0412792574074, -0.830066679937818
1.15400076274408, -0.907976290072252
-0.853761176982971, -0.247002281276699
-0.722551625922546, -0.214861149004095
0.751870004556594, -0.378027143163369
0.886431918899547, -0.391209820579203
-0.8760194840627, -0.0759464385821659
-0.737029803082933, -0.0669640052919066
0.746213113312457, -0.228054759322211
0.884237223692113, -0.219564190860012
-0.884236670864778, 0.0767019606618153
-0.74621252125778, 0.0851920070473897
0.737029902678589, -0.0758987752556381
0.876019557143297, -0.066915817377623
-0.886431612186935, 0.248362332488379
-0.751869862822962, 0.235178626717718
0.722550179914752, 0.0720125375359516
0.853759418704218, 0.104154652136424
-1.15400040941163, 0.765115226350559
-1.04127879424807, 0.687205811706216
-0.955303683046259, 0.579503018823314
-0.854248251377036, 0.433910999745153
-0.723884472704183, 0.361906826131441
0.67626283316186, 0.192829818554118
0.794684200994936, 0.283105296954076
0.873267555555396, 0.44157144827272
0.942562848859162, 0.560541727536755
1.0426009032983, 0.654111134107704
-1.08156837377127, 0.880794807625373
-0.951204483250694, 0.808790959345317
-0.850160925863177, 0.66319994039719
-0.764173786423466, 0.555495973130508
-0.65145228108289, 0.477586362998494
0.587618865995613, 0.29653408160394
0.687656787627391, 0.39010366033039
0.756964087442345, 0.509073063169348
0.835535557953676, 0.667540278838468
0.953957080434063, 0.757815463229853
-1.05358303926927, 1.00753550991138
-0.919021124929222, 0.994352832496118
0.776458441519369, 0.846503981456889
0.907667992576937, 0.878645113728644
-1.05924095271243, 1.15752235502533
-0.921216845734848, 1.16601292887178
-0.785554626851491, 1.17583160959494
-0.648538664535624, 1.17176462012654
-0.511849849785293, 1.16142422198122
-0.375122095087818, 1.14432159368287
-0.238078542250223, 1.12229584060238
-0.100226162346318, 1.09748784345484
0.0389375975798297, 1.07245578908824
0.179767151987198, 1.04983581628302
0.322336710482905, 1.03209144401927
0.466197336829284, 1.02088116264749
0.61093323403761, 1.01855278750399
0.754199112443236, 1.0175742907274
0.893188793220369, 1.02655671871359
-1.06842314206595, 1.30966386673478
-0.929433485603684, 1.31864681306701
-0.786167633954138, 1.31766882866361
-0.641431726665195, 1.31534098220223
-0.497571030954254, 1.30413118999058
-0.355001366588345, 1.28638720650311
-0.214171695996307, 1.26376747652249
-0.0750078351685073, 1.23873549468843
0.0628446145695052, 1.21392739636846
0.199888203337501, 1.19190138370612
0.33661596764828, 1.17479836847056
0.473304778384748, 1.16445749993235
0.610320727381575, 1.1603900085843
0.745982952893305, 1.17020820123941
0.88400709935777, 1.17869825806047