-0.84857820867565, -1.35802805601082
-0.712405210061784, -1.34559411834509
-0.578406662837563, -1.33258373148841
-0.443123136242097, -1.33652186754316
-0.308649099019381, -1.34905779781092
-0.174572299570796, -1.37110482106293
-0.0404417096158979, -1.40036833551765
0.0946260520003472, -1.43384317328862
0.231643665604589, -1.4677757932644
0.37135732525299, -1.49821493219033
0.513883278730321, -1.52152206121449
0.658352743005356, -1.53538671698563
0.803730504203853, -1.53727102853739
0.946870278693705, -1.53704285340055
1.08434672183461, -1.52734207491729
-0.860833293761333, -1.20082652723068
-0.723356879392435, -1.19112527004282
-0.580217160302309, -1.19089664952891
-0.434839409967227, -1.19278040559896
-0.290369871241618, -1.20664451558101
-0.147843785203853, -1.22995119793549
-0.00812997576611702, -1.26039005694352
0.12888776252484, -1.29432259802301
0.263955598782349, -1.32779756031716
0.398086212006554, -1.35706137902429
0.532162999518601, -1.37910884185617
0.666637011173965, -1.39164528621826
0.80192050421795, -1.39558394066295
0.935919034264899, -1.38257397572106
1.07209208198861, -1.37014051146181
-0.875120656594945, -1.04615240406468
-0.746002049377624, -1.01502901685519
0.92746049821848, -1.20561058417718
1.06005134239541, -1.21376097346931
-0.921164612406765, -0.922912613116453
-0.806372692899502, -0.826782410505704
-0.739512615023945, -0.652523697885385
-0.680794607548, -0.52574247899235
-0.585267409883253, -0.42721161046808
0.665795004647604, -0.653540719905334
0.777178679590186, -0.733817754195343
0.857086441117729, -0.848694753596428
0.953490521989319, -1.00931611603666
1.08337467008996, -1.08387175353484
-1.01344670203357, -0.822040946813161
-0.917919652487053, -0.723509905291265
-0.859213646307803, -0.596727229103392
-0.792341448999407, -0.422469759767153
-0.677549355603995, -0.326339882476747
0.738853118847159, -0.537903663716281
0.868737381097421, -0.612458941990207
0.965153592791336, -0.773081643450213
1.04504938039519, -0.887957498246979
1.15643293767742, -0.96823473164928
-0.852712839907498, -0.234224641195951
-0.723593894559185, -0.203102293984103
0.762177361685082, -0.408016497587091
0.894768353794398, -0.416165792947298
-0.875357214760154, -0.0581286262954437
-0.737880773975713, -0.0484278365130921
0.750136078749559, -0.251636705382908
0.886309080734835, -0.239202778433756
-0.886308464865275, 0.0963402854035096
-0.750135412982438, 0.108773743191057
0.737880990411589, -0.0944351597944854
0.875357405217231, -0.0847338964033725
-0.894768300580185, 0.273318751466402
-0.762177456405158, 0.265168362168524
0.723592323747242, 0.0602540443561917
0.852710930961535, 0.0913774315711405
-1.15643249032192, 0.825373534744222
-1.04504881538288, 0.745096500451265
-0.965153027156658, 0.630220804895985
-0.868736972981936, 0.46959813861031
-0.73885282487953, 0.39504250111685
0.677549671764836, 0.183478754318278
0.792341591274386, 0.279608956917907
0.859213642453923, 0.453866365736688
0.917919676625111, 0.580648888434643
1.01344687428868, 0.679179756964552
-1.08337437612237, 0.941010590933276
-0.953490113871906, 0.866455312650849
-0.857085875483051, 0.705833915042201
-0.777178114577871, 0.590956756399629
-0.665794557292107, 0.510679523000276
0.58526758213836, 0.284350420619471
0.680794631686058, 0.382881462135728
0.739512611170066, 0.509662834518681
0.806372835173617, 0.683921607650267
0.921164928567939, 0.780051484955885
-1.06005013328313, 1.07089775706691
-0.927459141177183, 1.06274846170694
0.746001444265697, 0.872166726241674
0.875120389610654, 0.903289073452785
-1.07209272005076, 1.22729263025923
-0.935919722227856, 1.23972656367732
-0.801921177465197, 1.25273697158081
-0.666637650869618, 1.24879883552596
-0.532163613646744, 1.2362629052585
-0.398086814198058, 1.2142158820067
-0.263956224243153, 1.18495236755207
-0.128888462627026, 1.151477529781
0.00812915097700763, 1.1175449098049
0.147842810625204, 1.08710577087849
0.29036876410243, 1.0637986418538
0.434838228377496, 1.04993398608222
0.580215989576052, 1.04804967453057
0.723355766021916, 1.04827782833046
0.860832206365469, 1.057978611912
-1.08434650540131, 1.38447907860983
-0.946870088235887, 1.39418033070726
-0.803730371101115, 1.39440897256721
-0.658352620765958, 1.3925252164973
-0.513883082040318, 1.37866110651481
-0.371356996002657, 1.3553544241598
-0.231643186565127, 1.32491556515128
-0.0946254482743778, 1.29098302407147
0.0404423879830134, 1.25750806177723
0.174573001207225, 1.22824424307019
0.308649788719373, 1.20619678023851
0.443123800374895, 1.19366033587673
0.578407293419018, 1.18972168143192
0.71240582592943, 1.20273162531978
0.848578874445159, 1.21516509381946