-0.932014182380365, -1.09759508568449
-0.790149009084206, -1.0933993955255
-0.650971324171955, -1.08921067887016
-0.510995945739733, -1.09184375434007
-0.370808358113042, -1.09819730808162
-0.230317293095681, -1.10783908990437
-0.0894792801340881, -1.11971507277944
0.0518271391388821, -1.13276945435183
0.193701663086648, -1.14587394161316
0.336223204110954, -1.1578902690585
0.479454404726928, -1.16769404319206
0.623330542913485, -1.17431355354512
0.767821421084062, -1.17640642274727
0.912218620332622, -1.1756034456287
1.05473210682576, -1.16678671819196
-0.938001234152906, -0.956292175440548
-0.795487768394444, -0.947475083374654
-0.651090552849113, -0.94667177559986
-0.506599647086815, -0.948764353042497
-0.362723469711278, -0.955383626318251
-0.219492225068394, -0.965187226587745
-0.076970640394512, -0.977203449128455
0.0649039227930523, -0.990307903407219
0.20621037466184, -1.00336232423494
0.347048413295193, -1.01523841639107
0.487539498568869, -1.02488037298315
0.627727104030638, -1.0312341601898
0.767702500687196, -1.03386751933179
0.906880212128063, -1.02967912032029
1.04874539883494, -1.02548379463445
-0.952114894165657, -0.819326943165086
-0.812474269945668, -0.795886364893119
0.906907144926441, -0.878943287168805
1.04854318128054, -0.885925807435695
-0.98315526573022, -0.687520076964613
-0.845028341666841, -0.645097492598233
-0.711221175675691, -0.582581890335385
-0.583249925719977, -0.527111437440938
-0.45083615858524, -0.480623769119948
0.506480536772537, -0.61759153712695
0.644133194417947, -0.645841672365775
0.778826273925877, -0.68319776251233
0.920028289753368, -0.726411963208626
1.06250319802919, -0.750257125799175
-1.02865894098677, -0.555069523322729
-0.89624519202796, -0.508581788467369
-0.768284690004402, -0.45311060978994
-0.634466718877679, -0.390595702373792
-0.496339780644017, -0.348173207404185
0.533723094507548, -0.479988041036309
0.676198012480212, -0.503833070779379
0.817410847445539, -0.547047924750177
0.952093195036404, -0.58440339416941
1.08974584096025, -0.612653631722149
-0.667021354746778, -0.239807445054298
-0.527380660967507, -0.216367268043301
0.547683651249074, -0.344320205101748
0.689319705757675, -0.351302301740981
-0.684007457192847, -0.0882187085111392
-0.541493972228469, -0.0794019738746178
0.547481063041438, -0.204762184903488
0.689346238639922, -0.200566500009924
-0.689345868084094, 0.0577056247680291
-0.547480679656616, 0.0619009488300214
0.541494011089914, -0.063459274678384
0.684007476255663, -0.0546421808554117
-0.689319614495623, 0.208453007599296
-0.547683578141636, 0.201470487330698
0.527379670144314, 0.0735175088987222
0.667020294363839, 0.0969580871727129
-1.08974554171844, 0.469793206335942
-0.952092884075112, 0.441543071096111
-0.817410569598497, 0.404187661884517
-0.676197788738717, 0.360972780256085
-0.533722880461916, 0.337127617664774
0.496339979512284, 0.205312823796967
0.634466903574832, 0.247735408161751
0.76828483460118, 0.310250329497928
0.896245319525028, 0.365721463318039
1.02865908665718, 0.4122091316406
-1.06250298398342, 0.607396702426583
-0.920028066010671, 0.583551672682695
-0.778825996078835, 0.54033749964667
-0.644132883456655, 0.502981349292476
-0.506480237530722, 0.474731111740743
0.450836304255652, 0.337763377437819
0.583250053217044, 0.384251112291607
0.711221320272469, 0.439721610043373
0.845028526363099, 0.502237198383432
0.983155464598402, 0.544659693356363
-1.04854242724168, 0.743064538362775
-0.906906372734147, 0.736082441724071
0.812473890496227, 0.653025455708392
0.952114584274441, 0.676465632718964
-1.04874569638136, 0.882634109864546
-0.90688052250431, 0.886829796382063
-0.767702838352016, 0.891018516657436
-0.627727459919539, 0.888385441187463
-0.487539872292672, 0.88203188744594
-0.347048807275182, 0.872390105623182
-0.206210794313518, 0.860514122748098
-0.0649043750405351, 0.84745974117567
0.0769701489071863, 0.834355253914283
0.219491689931396, 0.822338926468871
0.36272289054723, 0.812535152335221
0.506599028733606, 0.805915641982067
0.651089906904012, 0.803822772779908
0.795487106526086, 0.804625745311538
0.938000592081965, 0.813442478190965
-1.05473206796527, 1.02392546963878
-0.912218601269771, 1.03274255626396
-0.767821386098304, 1.03354586862794
-0.623330480336176, 1.03145329118529
-0.47945430296082, 1.02483401790944
-0.336223058318074, 1.01503041763986
-0.193701473644289, 1.00301419509908
-0.0518269104567697, 0.989909740820257
0.0894795414120303, 0.976855319992502
0.230317580045455, 0.964979227836349
0.37080866531926, 0.955337271244261
0.510996270781205, 0.94898348403764
0.650971667438023, 0.946350124895589
0.79014937963949, 0.95053852028519
0.932014565766031, 0.954733849610814