-0.811322461368954, -1.16899751118385
-0.672384290017427, -1.1538504650424
-0.539032450633391, -1.1412573772704
-0.405304515630041, -1.14447149594416
-0.27250512733031, -1.15984077507671
-0.140557443279423, -1.18717062734046
-0.00895287293626449, -1.223735520894
0.123538554554173, -1.26572618367366
0.258484197643885, -1.30845529121743
0.397159799878946, -1.34689804600196
0.539903823747199, -1.37633216551631
0.685654642026871, -1.39336738829191
0.832560642312247, -1.39575611926436
0.977667176429584, -1.38885475644313
1.11788345360008, -1.37097844497877
-0.82778965208904, -1.02343831903934
-0.687573479084093, -1.00556128971274
-0.542467070548072, -0.998659095098861
-0.395561077007402, -1.00104685181311
-0.249810105604346, -1.01808113465624
-0.107065822124136, -1.04751450119273
0.0316100601545072, -1.08595679636695
0.16655592116259, -1.12868578421844
0.299047460965153, -1.17067666309436
0.430652043736413, -1.20724206797752
0.56259968116967, -1.23457265795441
0.695399012700825, -1.24994280724713
0.829126902855791, -1.25315781677749
0.962478724711682, -1.24056550616174
1.10141696245082, -1.22541917497921
-0.850237379893566, -0.884025002956247
-0.716796566832457, -0.84619768027212
0.949789115276297, -1.08015861212365
1.0885701088173, -1.08230575678688
-0.899035749574863, -0.763759942161532
-0.774828292447691, -0.684980513632592
-0.674302987613201, -0.559287664337938
-0.582872450624473, -0.457553540268134
-0.472949776838741, -0.374560150970209
0.590570407950283, -0.686170335939754
0.718354806373276, -0.737601899007475
0.832881957340737, -0.812662215751947
0.962973171994558, -0.909132327822898
1.10355954642014, -0.952794400573622
-0.979159597806339, -0.652332985324663
-0.86923703655614, -0.569339411392381
-0.777817678639072, -0.467603452573807
-0.67728105762417, -0.341912284009028
-0.553073466203672, -0.263133123610205
0.638644103834683, -0.557589066219945
0.779230541725031, -0.601250812287818
0.909333085415688, -0.697722590481154
1.02384909838603, -0.77278136697449
1.15163342984406, -0.824213158649743
-0.735313359818361, -0.180696224551096
-0.601872271502388, -0.142869783794396
0.65363431299731, -0.428079244185179
0.792415338702992, -0.43022543524503
-0.76453560873681, -0.0213325744173665
-0.624319333273917, -0.00345625453253963
0.640786734797965, -0.284965769021005
0.779724911938907, -0.269818729534049
-0.779724065801064, 0.12695669171043
-0.640785823549653, 0.142103019823091
0.62431954252614, -0.139406571356726
0.764535715483339, -0.121529539240951
-0.792415362939506, 0.287376716779815
-0.653634369399064, 0.28522957211273
0.601870122503906, 1.98788231697139e-05
0.73531093556325, 0.0378472015111065
-1.15163237804909, 0.681351858859932
-1.02384797962943, 0.629920295790748
-0.909332008758969, 0.554861671270132
-0.779229614006196, 0.458389866978666
-0.638643239579348, 0.414727794227858
0.553073445039628, 0.120271805519977
0.677280902165665, 0.199051234041312
0.777817387104857, 0.324742391137623
0.869236743992066, 0.426478207408353
0.97915941777597, 0.509471596709543
-1.10355868216469, 0.809933128579741
-0.962972244273777, 0.766271382509194
-0.832880880684018, 0.669801296540925
-0.718353687616677, 0.594740827823733
-0.590569356155308, 0.543309036149943
0.472949596808372, 0.231698762355089
0.582872158060398, 0.314692336284105
0.674302696078986, 0.416426602901755
0.77482813698848, 0.542119463659923
0.899035728411039, 0.620898624069547
-1.08856847300151, 0.939442950617715
-0.949787447297943, 0.937296759558298
0.716795834796991, 0.703335523132586
0.850236923110922, 0.741161963888475
-1.10141774341896, 1.08256955988184
-0.962479570791854, 1.09771660243771
-0.829127734234651, 1.11030969930986
-0.695399799230765, 1.10709558063628
-0.562600410930495, 1.0917263015041
-0.43065272687916, 1.06439644924065
-0.299048156535778, 1.02783155568729
-0.166556729045423, 0.985840892907586
-0.0316110859560795, 0.943111785363509
0.10706451627847, 0.904669030578408
0.249808540146258, 0.875234911063384
0.395559358425617, 0.858199688287186
0.542465358710831, 0.855810957314567
0.687571893615087, 0.862712310153754
0.827788169123279, 0.880588627250195
-1.11788324434951, 1.22811561908921
-0.977667069682943, 1.24599264278847
-0.832560661934233, 1.25289484738952
-0.685654668393721, 1.25050709067511
-0.539903696990977, 1.23347280783139
-0.397159413511232, 1.20403944129423
-0.2584835312331, 1.16559714611944
-0.123537670225385, 1.12286815826763
0.00895386957709463, 1.08087727939168
0.140558452348579, 1.04431187450869
0.272506089782282, 1.01698128453211
0.405305421313977, 1.00161113523975
0.539033311469493, 0.998396125709553
0.672385136153841, 1.0109884272218
0.811323372618747, 1.02613476198597