-0.427654185900799, -1.08493389722894
-0.296742202600986, -1.04234316841426
-0.173779986363193, -0.999678480436858
-0.0538396397702723, -0.989268373537523
0.05688988984839, -1.01621351818451
0.150069000470156, -1.08298967388058
0.222191317498783, -1.18121097213236
0.281598869061248, -1.30031936766258
0.347279384597481, -1.43002942413705
0.441350864052343, -1.55464533392919
0.574501575998503, -1.64834255358285
0.732896327593592, -1.68830222428044
0.890147017740991, -1.67472953401572
1.03190964695327, -1.63798891440203
1.16451325257482, -1.59685376207264
-0.47345063819989, -0.937492254814609
-0.340847281451641, -0.896356415660321
-0.19908520833684, -0.859614770500251
-0.0418348176717575, -0.846040322794127
0.116560442045393, -0.885998022111639
0.249712336546323, -0.979693852282754
0.34378494765209, -1.10430927043286
0.409465994270166, -1.23401945937146
0.468873409682571, -1.35312833214943
0.540995163004611, -1.45135042621593
0.634173653656464, -1.51812774997276
0.744902828327807, -1.54507431559662
0.864843107085588, -1.53466559109333
0.987805342291615, -1.49200192395953
1.11871751047188, -1.44941189149882
-0.518100205662439, -0.793111717525947
-0.394708594289075, -0.736833209696121
0.942054140728094, -1.3242301645652
1.07476899060023, -1.30346727530968
-0.584849227941158, -0.6811732135539
-0.482502191667306, -0.573143958923391
-0.428529648596634, -0.406158562819351
-0.377595237082725, -0.278213922269166
-0.293449223950337, -0.169977333580841
0.559809805883536, -0.870773672754607
0.687329018085973, -0.921060359855585
0.794445445460047, -1.00886116232648
0.92640676389132, -1.13278978793555
1.07011149921682, -1.17312670830355
-0.688950356700303, -0.592739875869113
-0.604804529110728, -0.48450311150193
-0.553879460483797, -0.356554275142111
-0.499897467646211, -0.189572837504679
-0.397550195884124, -0.0815438891471761
0.603351221450838, -0.741362292191106
0.747055994322007, -0.781698836722979
0.879026772152804, -0.905631483265314
0.986133944090912, -0.993428412578539
1.11365308989626, -1.04371533268077
-0.587691351766711, -0.0258850390437245
-0.464299241060344, 0.030392479471522
0.598694832566537, -0.611023430988685
0.731409566966008, -0.590259411101927
-0.641551777887296, 0.133638248249267
-0.508948172303462, 0.174773405562157
0.554745599200694, -0.465078828738149
0.685657589313965, -0.422488110754958
-0.685656090085959, 0.279625261989308
-0.554743915924218, 0.322215288488134
0.508949141319104, -0.317637173756617
0.641552499535899, -0.276501331780021
-0.731411316869738, 0.447410965774195
-0.598696466997913, 0.468173855024016
0.464295542653498, -0.173242686122236
0.587687154023793, -0.116964178288327
-1.11365162051074, 0.900853507229724
-0.986132408308647, 0.850566820127038
-0.879025276458351, 0.762770048868671
-0.747054662504864, 0.638837392050943
-0.603349927177762, 0.598500471682845
0.397550551576706, -0.0613181324973971
0.499897587852556, 0.0467111221165383
0.553879426448344, 0.213692487058993
0.604804542432319, 0.341641158775535
0.688950555568542, 0.449877747473582
-1.07011020494343, 1.03026488779322
-0.926405432071308, 0.989928343258615
-0.794443949765594, 0.865999727929838
-0.687327482303708, 0.778198767404084
-0.559808336498014, 0.727911847303557
0.293449422818575, 0.0271152051853102
0.377595250404317, 0.135351969542771
0.428529614561182, 0.263296774736234
0.482502311873919, 0.430282243529168
0.584849583634755, 0.538311191907247
-1.07476659382741, 1.160603749
-0.942051859430746, 1.18136776888606
0.394708427752257, 0.59397004201575
0.518100538455925, 0.650247560529457
-1.1187198583982, 1.30656230159954
-0.987807874268241, 1.34915302554169
-0.864845664440749, 1.39181773095228
-0.74490531784567, 1.40222783785327
-0.634175788222555, 1.37528269320803
-0.540996677595102, 1.30850653751277
-0.468874360561521, 1.21028523926157
-0.409466808997381, 1.09117684373289
-0.343786293465043, 0.961466787260668
-0.249714814018739, 0.836850877467816
-0.116564102079439, 0.743153657808534
0.0418306495147666, 0.703193987105728
0.199081339663318, 0.716766677369939
0.340843971899497, 0.75350728247801
0.473447576010916, 0.794642436969845
-1.1645122835612, 1.45398999387744
-1.03190892530521, 1.49512583087607
-0.890146855216344, 1.53186749055126
-0.732896464550097, 1.5454419382569
-0.574501204833829, 1.50548423893418
-0.44134931033976, 1.41178840875744
-0.34727669924255, 1.28717299060662
-0.28159565262837, 1.15746280167026
-0.22218823721429, 1.03835392889384
-0.150066483887297, 0.94013183482791
-0.056887993229756, 0.873354511071901
0.0538411814460394, 0.84640794544979
0.173781460205999, 0.856816669954716
0.296743701826347, 0.899480319652489
0.427655869179114, 0.942070356979938