-0.851159643229117, -0.923213856580183
-0.70949472617095, -0.909436560368105
-0.571500614641754, -0.904369135695377
-0.431244999245914, -0.911122380784029
-0.290088285932986, -0.924983775858991
-0.148383527347981, -0.943838918084987
-0.00624550922871385, -0.965750856790608
0.136416529754018, -0.989175327539087
0.279772597146682, -1.01271071912614
0.424077479852599, -1.03494983379927
0.56969087038016, -1.05429248165888
0.716965637247499, -1.06878693220611
0.866312601894885, -1.0754751658328
1.01746337083189, -1.0722211294486
1.1609535380514, -1.05334098760499
-0.865174999457191, -0.784636304730095
-0.721684783280956, -0.765756617763829
-0.570534068308409, -0.762502964845068
-0.421187161691717, -0.769191453026232
-0.273912446309681, -0.783686071796443
-0.128299096723551, -0.803028824669381
0.0160057551213159, -0.825267995857185
0.159361800040954, -0.848803403373137
0.302023822770466, -0.872227852075554
0.444161828257152, -0.894139728704021
0.585866574207871, -0.912994762116449
0.727023268798815, -0.926855990172508
0.867278848570499, -0.933608992469086
1.00527288385166, -0.92854123310034
1.14693774601391, -0.914763468430066
-0.891433692873068, -0.652350673477074
-0.752634919574398, -0.619213227833167
0.99237286281298, -0.788270643172689
1.13515231088405, -0.772568767264087
-0.929375072521899, -0.517822644712714
-0.792297690736337, -0.479069493444588
-0.656373222975163, -0.440875424572507
-0.519405574342786, -0.402368601447961
-0.382322495255643, -0.362896350470692
0.558961776965662, -0.751361678167442
0.700722423680063, -0.72308195373958
0.841380457925961, -0.688130641914432
0.976366912864997, -0.6516983438837
1.11578482195674, -0.627584181200231
-0.969310556412656, -0.381039448299186
-0.83222741927772, -0.341567589648814
-0.695270371649309, -0.303059249777114
-0.559335584829552, -0.264866816604729
-0.422258361656921, -0.226113209135742
0.531627561971294, -0.609316484384582
0.671045521999709, -0.585202661618665
0.806042395683167, -0.548772203819677
0.946689793306488, -0.513819070067267
1.08845035101329, -0.485539076365414
-0.598999356925357, -0.124723367820325
-0.460200690620572, -0.091585427657434
0.512260762092493, -0.464331746402807
0.655040281898538, -0.448630427513816
-0.62994999005095, 0.0218199403047135
-0.486459830962584, 0.0407000909894937
0.500475856237872, -0.322137043671442
0.642140775805682, -0.308359748607728
-0.642140485921701, 0.165499841779217
-0.50047562221647, 0.17927760594454
0.486460501318609, -0.183559493030609
0.629950712616393, -0.164679804723241
-0.655042230793013, 0.305780319421816
-0.512262782722064, 0.321482195330982
0.460200082525586, -0.0512639735579869
0.598998855823836, -0.0181265279130089
-1.08845159126441, 0.342679396206897
-0.946690944548331, 0.370959120637427
-0.806043406985108, 0.405912157832434
-0.671046455367539, 0.44234273049245
-0.531628546273589, 0.466456893173955
0.422260428254382, 0.083254166986371
0.559337810037818, 0.122007318252217
0.695272774481672, 0.160199661754489
0.83222992643517, 0.198708210249831
0.969313005520042, 0.238180461228568
-1.11578580625878, 0.484724589989757
-0.976367846232592, 0.508838412757124
-0.841381469227901, 0.545270595927189
-0.700723574921906, 0.58022200430974
-0.558963017216781, 0.608501998008925
0.38232494436303, 0.220037363400073
0.519408081500236, 0.259509222048978
0.656375625807526, 0.298015836549882
0.792299915944251, 0.336209995091617
0.929377139118765, 0.374963602563517
-1.13515260613794, 0.629709327971258
-0.992373086332024, 0.645410646860956
0.752636143850521, 0.476353443878964
0.891434810155161, 0.509491384042053
-1.14693923736832, 0.771913918923355
-1.00527431934306, 0.785691214493132
-0.867280207471065, 0.790758638599436
-0.72702459207452, 0.784005393510848
-0.585867878761149, 0.770143998435981
-0.444163120175864, 0.751288856210038
-0.302025102056454, 0.729376917504437
-0.159363063073699, 0.70595244675594
-0.0160069956811282, 0.682417055168832
0.128297887024574, 0.66017794049559
0.273911277551788, 0.6408352926358
0.421186044418622, 0.626340842088307
0.570533009065384, 0.619652608461284
0.721683780470436, 0.622906641565839
0.865173944436687, 0.641786790908878
-1.16095286769583, 0.910481585563921
-1.01746264826735, 0.929361265030315
-0.866311935764329, 0.932614921228671
-0.716965029148265, 0.925926433047182
-0.569690313766734, 0.911431814276704
-0.42407696418095, 0.89208906140359
-0.279772112336298, 0.869849890215675
-0.136416067416754, 0.846314482699663
0.00624595531278157, 0.822890033997229
0.14838396079961, 0.800978157368781
0.29008870675061, 0.782123123956406
0.431245401341997, 0.768261895900442
0.571500981114391, 0.761508893603921
0.709495016054513, 0.766576653539455
0.851159877250594, 0.7803544188529