-1.00681927756827, -1.08206798656201
-0.863442987961256, -1.08679265090603
-0.719305035881306, -1.08402286686935
-0.574365706101788, -1.08484575288896
-0.429487859009741, -1.0854101346706
-0.28454745240786, -1.0862605599464
-0.139587691679719, -1.08720995462121
0.00541098758104959, -1.08821689526057
0.150436560687421, -1.08922301294984
0.295480267337203, -1.09017781493464
0.44057228000201, -1.09100088913745
0.585687074916917, -1.09172825317059
0.73098152151953, -1.09161848280424
0.875637110411037, -1.09425210793147
1.01906147279894, -1.08846371849672
-1.0072561699654, -0.94576520741012
-0.863831801840153, -0.939977108212368
-0.719176257742376, -0.942610965497671
-0.573881841207803, -0.942501352487015
-0.428767069020159, -0.94322882224391
-0.283675073642318, -0.944051963777707
-0.138631380943831, -0.945006803050873
0.00639417988046335, -0.94601293262165
0.151392847024877, -0.947019861215794
0.296352594291263, -0.947969218449353
0.441292984380845, -0.948819576277659
0.58617080968388, -0.949383852338248
0.731110110145402, -0.950206581225384
0.875248017160451, -0.947436566416069
1.01862431043185, -0.952160939674489
-1.02364844118567, -0.813276230062066
-0.882990842579819, -0.78917263477
0.892837576957512, -0.796789972856502
1.03381244345336, -0.819235456878604
-1.05433890105557, -0.678574039608268
-0.915629250363914, -0.645074923009524
-0.778607371856434, -0.608483924048887
-0.641623518158224, -0.572695998675561
-0.503869415081288, -0.537559886249425
0.509686761777987, -0.552598301823665
0.648086460684637, -0.585410342879033
0.785811325454703, -0.61866535077174
0.923442328675103, -0.652575485951573
1.06262744962454, -0.683867999744024
-1.08981819192843, -0.541146174585784
-0.952064049252519, -0.506010404800657
-0.81509148760358, -0.470222589665343
-0.678058566339231, -0.433631577563031
-0.539349039870192, -0.400132058462122
0.542865673725956, -0.414513412530574
0.682050678079141, -0.445806326805106
0.819692727290684, -0.479716614708564
0.957406297751276, -0.512971378082272
1.09580603014627, -0.545783079120282
-0.710698463849752, -0.289534558362593
-0.570040917119798, -0.265430610972749
0.571682100745355, -0.279146676555363
0.712656918644116, -0.301592516370219
-0.729857849422888, -0.138730101443149
-0.58643349032118, -0.132941699911182
0.586870538685852, -0.146221258620759
0.730246825462148, -0.150945934770733
-0.730246944512984, 0.00808545001311564
-0.586870652903769, 0.0033610740506091
0.586433646595023, -0.00991848421938773
0.729858012802569, -0.00413038228182057
-0.712657455239519, 0.158743073886288
-0.57168258874412, 0.136297589862649
0.570041306509512, 0.12258152614478
0.710698905114874, 0.146685121438446
-1.09580820155708, 0.40292371189999
-0.957408502653343, 0.370111670843623
-0.819694835035097, 0.336856731817278
-0.682052634661252, 0.302946527773605
-0.54286751371131, 0.271654013979946
0.539350915505103, 0.257272683581342
0.678060566197027, 0.290771800181045
0.815093641858287, 0.327362730278908
0.952066298404668, 0.363150724512667
1.0898204014786, 0.398286836939864
-1.06262928960911, 0.54100860119308
-0.923444285256212, 0.50971568691777
-0.785813433199115, 0.475805467880453
-0.648088665586703, 0.442550635640384
-0.509688933188801, 0.409738934603372
0.503871624631452, 0.394700548603505
0.641625767310374, 0.429836318387571
0.778609526111141, 0.465624064662453
0.915631250220733, 0.502215145625228
1.05434077668969, 0.535714664727167
-1.03381286258988, 0.676375337169286
-0.892838044691779, 0.653929497355246
0.882991352710928, 0.646312164828494
1.02364889944023, 0.670416112217559
-1.01862449351254, 0.809311788121434
-0.875248205074678, 0.80458711467689
-0.731110251520059, 0.807356903061769
-0.586170921740461, 0.806534017042051
-0.44129307464841, 0.805969635260422
-0.296352668046518, 0.805119209984616
-0.151392907318373, 0.804169815309807
-0.00639422805760305, 0.803162874670443
0.138631345048767, 0.802156756981167
0.283675051698544, 0.801201954996363
0.428767064363344, 0.800378880793558
0.573881859278227, 0.7996515167604
0.71917630588088, 0.799761287126849
0.863831896356163, 0.797127657505799
1.00725625737491, 0.80291605629663
-1.01906131652594, 0.945603534365809
-0.875636947031619, 0.951391624207896
-0.730981404517685, 0.948757771418203
-0.585686987983067, 0.948867384428963
-0.440572215795448, 0.948139914672046
-0.295480220417613, 0.947316773138249
-0.150436527719131, 0.946361933865079
-0.00541096689483895, 0.945355804294301
0.139587700249576, 0.944348875700154
0.284547447515967, 0.943399518466593
0.429487837605559, 0.942549160638281
0.574365662908598, 0.941984884577707
0.719304963370204, 0.941162155690454
0.863442868910625, 0.943932166149793
1.00681916335118, 0.939207801991499