-0.98369042838649, -1.14610120392105
-0.840515803462926, -1.15630789508971
-0.696642703658157, -1.15098947272552
-0.550396220284643, -1.15575277274121
-0.404034811290373, -1.16084536052995
-0.257404260050617, -1.16711508057926
-0.110639466398627, -1.17387884824171
0.0362545790561988, -1.18088990958147
0.183263379735054, -1.1879040984371
0.330399921946174, -1.19469600481403
0.477755116941734, -1.20093082644993
0.625353756366459, -1.20644157066582
0.773736802940075, -1.20908553827751
0.921012814268109, -1.21646018060579
1.06432504006139, -1.20210699396857
-0.985084468730802, -1.01827363482094
-0.841772216801774, -1.00392074819732
-0.694496273249787, -1.01129563729344
-0.546113265213628, -1.01393974617249
-0.398514651563693, -1.01945057459429
-0.251159473152955, -1.02568544457138
-0.104022942152791, -1.03247737570305
0.0429858500986509, -1.03949157193503
0.189879887865073, -1.04650262514453
0.336644672626238, -1.05326636721336
0.483275211420084, -1.05953603795189
0.629636600748378, -1.06462854090278
0.775883052429776, -1.06939169935898
0.919756088112022, -1.06407304231172
1.06293073171309, -1.07427942002211
-1.02077763146972, -0.903839057608109
-0.892191726707816, -0.844332216190262
0.961700623615568, -0.904964341042359
1.0941811919423, -0.956442481621752
-1.09222264660685, -0.796703292816499
-0.977846812362904, -0.710089315183062
-0.875575830478592, -0.609478615435124
-0.774399646393863, -0.51531682211242
-0.667066279379746, -0.425466255313404
0.692410004791334, -0.521656849661495
0.809221493440526, -0.599889116458794
0.92194323049839, -0.681345438905011
1.03554850504246, -0.767126959611672
1.15747667556202, -0.842019924522765
-1.1819718981731, -0.690118213746316
-1.07463821656299, -0.600268136511329
-0.973475256204974, -0.506106235513474
-0.871191374068165, -0.405495995820504
-0.756815994761531, -0.318881464541514
0.770802355624286, -0.405632436966701
0.892730119164579, -0.480525999957549
1.00634829815849, -0.566308023510622
1.11905676998115, -0.647763529004504
1.23586852243762, -0.725995266839455
-0.956849603272805, -0.271255127043968
-0.828263833998233, -0.211747913276333
0.834100857134366, -0.291211874360213
0.966581283976996, -0.342690447365014
-1.00726950394013, -0.111666683351368
-0.863957287427796, -0.09731346763266
0.865351640462868, -0.173375082967363
1.00852625946091, -0.183581801102622
-1.00852623608908, 0.0407204788249784
-0.865351595137396, 0.0305140948702775
0.863957600190387, -0.045547524634595
1.00726984773396, -0.0311946313851468
-0.966582165465703, 0.199841292748877
-0.834101597141528, 0.148363152166163
0.828263975212979, 0.0688991714734393
0.95684987997178, 0.128406012894912
-1.2358723220583, 0.583136665227813
-1.11906083341574, 0.504904398430158
-1.00635231699308, 0.423448538224638
-0.892733821808556, 0.337666555278356
-0.770805651291022, 0.262773590366269
0.756819422317236, 0.176022817366801
0.871195256557936, 0.262636794997688
0.973479459085325, 0.36324703251933
1.07464242253265, 0.457409288070181
1.18197578954084, 0.547259854869892
-1.15747997122535, 0.699161077922607
-1.0355522076852, 0.624267514928153
-0.921947249332984, 0.538485953619027
-0.809225556875124, 0.457029985884448
-0.692413804412024, 0.378798248049853
0.667070170747486, 0.28260789643698
0.774403852363523, 0.372457973671272
0.875580033358943, 0.46661941244098
0.97785069485176, 0.567230114355952
1.09222607415905, 0.653844645641783
-1.09418146971631, 0.813581640530484
-0.96170104287389, 0.762103067528086
0.89219246564871, 0.701470983142989
1.0207782349231, 0.760978196908645
-1.06293114862273, 0.931430550821565
-0.919756526975126, 0.921223838934645
-0.775883423823181, 0.926542271246089
-0.629636940449468, 0.921778971230086
-0.483275531455155, 0.916686383441384
-0.336644980215365, 0.910416663392048
-0.18988018656336, 0.903652895729587
-0.0429861411085311, 0.896641834389818
0.104022659570317, 0.889627645534177
0.251159201781416, 0.882835739157232
0.398514396776942, 0.876600917521305
0.546113036201586, 0.871090173305326
0.69449608277522, 0.868446205693832
0.841772098358725, 0.861071552360938
0.985084319256514, 0.875424761450105
-1.06432472730008, 1.05924600170061
-0.921012470475459, 1.0735988658725
-0.773736531179429, 1.0662239877853
-0.625353523143246, 1.06357987890645
-0.477754909493391, 1.05806905048456
-0.330399731082686, 1.05183418050744
-0.183263200082543, 1.04504224937576
-0.0362544078311088, 1.03802805314376
0.110639629935317, 1.03101699993426
0.257404414696497, 1.02425325786541
0.404034953490377, 1.01798358712686
0.550396342818714, 1.01289108417601
0.696642794500321, 1.00812792571948
0.840515826835472, 1.0134465728153
0.983690473713184, 1.00324021582303