-0.967158531409612, -1.13973386548362
-0.824196664953589, -1.1512889265361
-0.680875477342244, -1.14589867628475
-0.534591196210709, -1.15305927554365
-0.388055770876747, -1.16105140444532
-0.241168526735349, -1.17064379946994
-0.0941005296348348, -1.18092493857279
0.0531321395491015, -1.19154206332946
0.20051893264879, -1.20216754913996
0.348091166721661, -1.21249649119455
0.495981881852158, -1.22207751357807
0.644267855509345, -1.23059844927631
0.793692848094073, -1.23536283796944
0.942090121757821, -1.244734226503
1.08523715607042, -1.22789570474397
-0.968827307679255, -1.01417271723425
-0.825680244305057, -0.997334453579748
-0.677283036262566, -1.00670606705233
-0.527858080390862, -1.01147057702383
-0.379572130768914, -1.01999158290933
-0.231681430542544, -1.02957264444429
-0.0841092060933433, -1.03990160610603
0.0632775801548623, -1.0505270975977
0.210510243370961, -1.06114421576472
0.357578233662718, -1.07142533421046
0.504465468059166, -1.08101768877239
0.651000877303849, -1.08900974651573
0.797285131138687, -1.09617022350221
0.940606259499132, -1.09077976584409
1.08356814759104, -1.10233454718964
-1.00918752988937, -0.905509790988057
-0.886291753653844, -0.836010885634485
0.989203803250455, -0.929937482190181
1.11838120723238, -0.98866714859411
-1.09039842880899, -0.809595587817308
-0.988278010744538, -0.708274222325437
-0.904388885273612, -0.59034986978233
-0.820981495574239, -0.481626998875292
-0.728397327444064, -0.377702072613352
0.760389212400241, -0.515384349075928
0.868569096721868, -0.604389405884912
0.971129269798281, -0.69716717645346
1.07450553826812, -0.79572398246024
1.18934719320379, -0.881395368936806
-1.19395674131109, -0.717751513690894
-1.10137217719591, -0.613827037422486
-1.01797859614838, -0.50510385429176
-0.934075943634543, -0.387180233744351
-0.831956062378087, -0.285858353557021
0.84941692125674, -0.40807507582035
0.964258092532171, -0.493747060245255
1.06764788000752, -0.59230455255554
1.17019418171062, -0.685081261339267
1.27837440088742, -0.774085788298344
-1.03606569047629, -0.259446005385688
-0.913170038433514, -0.189946781964043
0.920386323456992, -0.300805597541301
1.0495635762363, -0.359535674352884
-1.09667753250199, -0.0981225390280741
-0.953530509817494, -0.0812839832166076
0.955199677464198, -0.187138357595073
1.0981615373442, -0.198693449507574
-1.09816140262225, 0.0558319495783687
-0.955199517211745, 0.0442771610673308
0.953530901139618, -0.0615772216548775
1.09667795923539, -0.0447389501994587
-1.04956454060287, 0.216686471476865
-0.920387136624319, 0.157956805069489
0.913169999869974, 0.0470979499974506
1.03606577610126, 0.116596855354795
-1.27837845240169, 0.631227359177713
-1.17019856808741, 0.542222302368865
-1.06765225895043, 0.449445210862258
-0.964262126535366, 0.350887725792935
-0.84942047160278, 0.265216339316284
0.831959780014176, 0.142999907758812
0.934080198074538, 0.244321273244816
1.01798318749354, 0.362244946747259
1.10137671324989, 0.47096849669999
1.19396088137432, 0.574893422962748
-1.18935074354519, 0.738536632433291
-1.07450957227006, 0.652864648003597
-0.971133648741188, 0.554307834760177
-0.868573483098659, 0.46153044691451
-0.760393263914517, 0.372525919955297
0.728401467507293, 0.234843981885206
0.820986031628215, 0.338768458152795
0.904393476618781, 0.44749096223783
0.988282265183732, 0.565415261821656
1.09040214644029, 0.666737142019079
-1.11838134134648, 0.845806110713542
-0.989204088566897, 0.787076033904785
0.886292518342873, 0.693149490194239
1.00918817038594, 0.762648713613748
-1.08356866639466, 0.959485596069136
-0.940606803832394, 0.947930511327042
-0.797285612382569, 0.953320772955009
-0.651001331250785, 0.946160173695739
-0.504465905916759, 0.93816804479411
-0.357578661775318, 0.928575649769468
-0.210510664674785, 0.918294510666602
-0.0632779954908448, 0.90767738590992
0.084108797608832, 0.897051900099406
0.231681031681673, 0.886722958044784
0.37957174681212, 0.877141935661225
0.527857720469194, 0.868620999962866
0.677282713053914, 0.863856611269903
0.825679991980281, 0.854485209763643
0.968827019943767, 0.871323757769822
-1.08523676474954, 1.08503449987177
-0.942089695026038, 1.10187273727901
-0.793692492246948, 1.09250113678397
-0.644267536375244, 1.08773662681266
-0.49598158675341, 1.07921562092703
-0.348090886527089, 1.06963455939204
-0.200518662077919, 1.05930559773027
-0.0531318758297247, 1.04868010623858
0.0941007873863769, 1.03806298807154
0.241168777678153, 1.02778186962579
0.388056012074645, 1.01818951506384
0.534591421319392, 1.01019745732054
0.680875675154492, 1.00303698033366
0.824196799676486, 1.0084274266105
0.967158691663233, 0.996872668954795