-1.1044395628148, -1.21564886317407
-0.962091570923028, -1.23808705960146
-0.811496254289229, -1.22360935955737
-0.659252760621988, -1.21663074672674
-0.508662518339073, -1.20501753180062
-0.358525369098575, -1.19246338581969
-0.208730251274197, -1.17921174287962
-0.0591036171508681, -1.16571365276519
0.0903924791915966, -1.15222352910606
0.239742395019342, -1.13902944352402
0.388914169726336, -1.12644725053936
0.537669352375654, -1.11559235385593
0.68610520375768, -1.10519148096531
0.830107466278969, -1.112289941235
0.972255035897733, -1.09441465758183
-1.10307784534302, -1.09698262907756
-0.960930253082999, -1.07910741898915
-0.816928010733975, -1.08620595939736
-0.668492169510538, -1.07580512546012
-0.51973699210602, -1.06495024857014
-0.370565220166878, -1.05236806586014
-0.221215306005597, -1.03917398511141
-0.0717192109925972, -1.02568386294165
0.0779074215565502, -1.01218577159802
0.22770253688799, -0.998934124162935
0.377839681698462, -0.986379968483051
0.528429915720658, -0.974766734127251
0.680673395315441, -0.967788084465748
0.831268687134197, -0.953310287460038
0.973616699422291, -0.975748438766851
-1.14969565592799, -0.999190925833232
-1.03769073205513, -0.914371497260256
0.92176286915581, -0.789340097408009
1.02466629246808, -0.88342554995396
-1.24363533115537, -0.924221825384473
-1.16655296165886, -0.802156190007507
-1.1196277977138, -0.663049121709477
-1.07024709537008, -0.537310191618984
-1.00642197032528, -0.415032005182062
0.986667814096609, -0.277377010749107
1.02852435908822, -0.407832418430758
1.05089104077087, -0.539825850271104
1.06727932677493, -0.689147505685876
1.12472738696736, -0.822386111572414
-1.36515634953322, -0.861112723241718
-1.30133071661434, -0.738834877486841
-1.2519659988487, -0.613097069577085
-1.20502502890509, -0.473989392285453
-1.12794330613972, -0.351923337473904
1.11602861242501, -0.235720747471756
1.17347606517813, -0.36895965309228
1.18988022500217, -0.518280348558691
1.212230959794, -0.650274258777755
1.25408798437884, -0.78072945796083
-1.33389214503337, -0.361777032082129
-1.22188728094734, -0.276957389967553
1.2160934959459, -0.174684833913343
1.31899695938763, -0.26877041029154
-1.4106527844599, -0.19704114227357
-1.26850522671076, -0.179165813932954
1.26714319560849, -0.0823620185433972
1.40949116889189, -0.104800263717376
-1.40949156664933, -0.0380614496329515
-1.26714356206266, -0.0604996125282469
1.26850491093857, 0.0363041972440477
1.41065249893195, 0.0541794177894673
-1.31899662918384, 0.125920678655909
-1.21609320587875, 0.0318352261079089
1.22188786348153, 0.134107850312406
1.33389278734814, 0.218927278887617
-1.2540924473881, 0.637871815486378
-1.21223590240095, 0.50741640780069
-1.18988536391891, 0.375422212854277
-1.17348093471874, 0.226101320532278
-1.1160328745273, 0.092862714664195
1.1279474251355, 0.20906500093368
1.20502979462745, 0.331130636299811
1.25197110177362, 0.470238467755899
1.3013356609178, 0.595976634699629
1.36516078595567, 0.718254821136346
-1.1247316490597, 0.679528078763728
-1.06728419631375, 0.546289173123582
-1.05089617968762, 0.396967714566689
-1.02852930169516, 0.264974567453692
-0.986672277105864, 0.134519368274654
1.00642640674774, 0.27217410307669
1.07025203967353, 0.394451948831772
1.11963290063872, 0.520190519888291
1.16655772737919, 0.659297434019545
1.24363945014124, 0.781363488844504
-1.02466676554195, 0.740563992323172
-0.921763302097587, 0.646478415946984
1.03769061124856, 0.771509794239536
1.14969547533733, 0.856329436351137
-0.973616302742887, 0.832898757517649
-0.831268321754516, 0.810460523938441
-0.680672996360261, 0.824938242821782
-0.528429502692972, 0.831916855652154
-0.377839260410214, 0.843530070578442
-0.22770211116977, 0.856084216559409
-0.0779069933454252, 0.869335859499507
0.0717196407778923, 0.88283394961395
0.22121573712036, 0.896324073273089
0.370565652948124, 0.909518158855144
0.519737427655167, 0.922100351839833
0.668492610304557, 0.932955248523192
0.816928461686969, 0.943356121414371
0.960930730683743, 0.936257644334908
1.10307829270349, 0.954132962211324
-0.972255351670675, 0.95155304089178
-0.83010775180944, 0.969428216754741
-0.686105515937023, 0.96232969316186
-0.537669674713181, 0.972730527099683
-0.388914497308591, 0.983585403989596
-0.2397427253694, 0.996167586699625
-0.0903928112080999, 1.00936166744836
0.0591032838049028, 1.02285178961813
0.208729916354039, 1.03634988096177
0.358525031685447, 1.04960152839689
0.508662176495863, 1.06215568407681
0.659252410517903, 1.07376891843278
0.811495890112743, 1.08074756809401
0.962091173168897, 1.09522534625477
1.10443919636151, 1.07278723210176