-1.12566783449646, -1.20311330304421
-0.983579396047774, -1.22793702740591
-0.831085898522367, -1.21095116892978
-0.677276241614403, -1.20109175368435
-0.525642065499105, -1.18579928102778
-0.37462697624861, -1.16936134523497
-0.224037566672651, -1.15213805089005
-0.0736482391770255, -1.13464531912673
0.0765967500128144, -1.1171652209758
0.226684316826505, -1.10001906571739
0.376568174511825, -1.08358496615446
0.525968111407659, -1.06918969820166
0.674858328525955, -1.05570694290687
0.818498186991158, -1.06249002456637
0.960359346093476, -1.04342355093232
-1.12383870949871, -1.0865789711702
-0.981977527975719, -1.06751252463622
-0.838337677969343, -1.07429565693333
-0.689447466814417, -1.0608129243667
-0.540047532737745, -1.0464176669604
-0.390163676461799, -1.02998357273743
-0.240076110451719, -1.01283741989262
-0.0898311218953185, -0.995357322481904
0.0605582048145545, -0.977864590143618
0.211147613057301, -0.960641293604992
0.362162699800476, -0.944203352923978
0.513796870922056, -0.928910869828607
0.66760651920001, -0.919051434685175
0.820100004012938, -0.902065504575631
0.962188459122337, -0.926889239934509
-1.17291360478653, -0.993158246799977
-1.06609682471208, -0.902397092491812
0.922160519993718, -0.738744910632378
1.0167311348024, -0.840226241171307
-1.27084379323348, -0.927024679517946
-1.20518460551642, -0.798215600744772
-1.17469352922386, -0.653606292147368
-1.13997891061682, -0.523783347891281
-1.0887721161739, -0.396203020712592
1.06894473136057, -0.231488649031621
1.09160945365765, -0.365957446943898
1.09139404628731, -0.498983439767807
1.08125115215918, -0.651451583403788
1.12063759560482, -0.791572501712144
-1.39751031765494, -0.876457953266741
-1.34630298393935, -0.748877911043277
-1.31160499851153, -0.619056264998096
-1.28109741601485, -0.47444619753947
-1.21543890856354, -0.345636746340754
1.20216600114452, -0.208623035696048
1.24155186150205, -0.348744178187824
1.23142557963507, -0.501211143291895
1.2311935615807, -0.634237856764126
1.2538587384525, -0.768706536543222
-1.4201904172509, -0.37026778685618
-1.31337367096553, -0.279506442590207
1.30607636506614, -0.159973017556124
1.40064709789423, -0.261454431926972
-1.50430982306229, -0.205152366800493
-1.36244867710848, -0.186085844711826
1.36061912300402, -0.0733100715713647
1.50270753909846, -0.0981338497050722
-1.50270800858001, -0.044727804306774
-1.36061956270765, -0.0695515526532142
1.36244824543295, 0.0432242403667393
1.50430942238961, 0.062290698225354
-1.4006465481927, 0.118604368337179
-1.30607593339171, 0.0171230377973035
1.3133743037681, 0.136656556425395
1.4201910838359, 0.227417710734927
-1.25386329046926, 0.625849038246907
-1.23119856817636, 0.491380240327658
-1.23143080737577, 0.358353293909805
-1.24155686968508, 0.205886103853714
-1.20217042623651, 0.0657651855685453
1.21544316170918, 0.20277853201626
1.28110234942263, 0.331587610775079
1.31161025754455, 0.476197873032763
1.34630804432087, 0.606019863642538
1.39751483875714, 0.73360019082148
-1.12064202068531, 0.64871465158248
-1.0812561603396, 0.508593509068304
-1.091399274028, 0.356125590385718
-1.09161446025331, 0.22309983050743
-1.06894928337733, 0.0886311507353063
1.0887766372761, 0.253345258267331
1.13998397099834, 0.380925300490542
1.17469878825688, 0.510747900182036
1.20518953892142, 0.655357013979085
1.2708480463675, 0.784166465193318
-1.0167316567676, 0.69736466972324
-0.922160923936083, 0.595883255353869
1.06609653768115, 0.759535424680467
1.17291328397014, 0.850296768943686
-0.962187945195972, 0.784039207396051
-0.820099519859877, 0.759215442256465
-0.667606011792201, 0.776201321571755
-0.513796354884219, 0.786060736816986
-0.36216217876914, 0.801353209473753
-0.211147089518722, 0.817791145266613
-0.0605576799428068, 0.835014439611571
0.089831647552804, 0.852507171374901
0.240076636742648, 0.869987269525841
0.390164203556362, 0.887133424784254
0.540048061241744, 0.903567524347214
0.689447998137678, 0.917962792299935
0.838338215256489, 0.931445547595331
0.981978080926892, 0.9246624477553
1.12383923145222, 0.943728958511525
-0.960359777769573, 0.900561946586085
-0.818498587666884, 0.91962835599476
-0.674858744867187, 0.912845241883522
-0.525968533711725, 0.926327974450791
-0.376568599634953, 0.940723231857013
-0.226684743358945, 0.957157326080008
-0.0765971773488413, 0.974303478924822
0.0736478112075629, 0.991783576335547
0.224037137917421, 1.00927630867385
0.374626546160124, 1.02649960521251
0.525641632903223, 1.04293754589358
0.677275804024583, 1.05823002898914
0.831085452302562, 1.06808946413236
0.98357892657028, 1.08507537339728
1.12566739479358, 1.0602516788191