-1.06432504006325, -1.20210699396514
-0.921012814270056, -1.21646018060393
-0.77373680294163, -1.20908553827661
-0.625353756367777, -1.20644157066546
-0.477755116942886, -1.20093082644981
-0.330399921947206, -1.19469600481398
-0.183263379735993, -1.18790409843702
-0.0362545790570587, -1.18088990958128
0.110639466397841, -1.17387884824133
0.257404260049908, -1.16711508057863
0.404034811289755, -1.16084536052897
0.550396220284142, -1.15575277273975
0.696642703657817, -1.15098947272336
0.840515803462887, -1.15630789508654
0.983690428386413, -1.14610120391644
-1.0629307317137, -1.07427942001892
-0.919756088112551, -1.06407304230986
-0.775883052430598, -1.0693916993581
-0.629636600749313, -1.06462854090241
-0.483275211421072, -1.05953603795178
-0.336644672627243, -1.05326636721333
-0.189879887866077, -1.04650262514446
-0.0429858500996483, -1.03949157193486
0.104022942151799, -1.0324773757027
0.251159473151959, -1.02568544457078
0.398514651562673, -1.01945057459334
0.546113265212553, -1.01393974617105
0.694496273248613, -1.0112956372913
0.841772216800376, -1.00392074819414
0.985084468729531, -1.01827363481651
-1.09418119194195, -0.956442481618527
-0.961700623614735, -0.904964341040205
0.892191726705183, -0.844332216186717
1.02077763146756, -0.903839057603657
-1.15747667556078, -0.842019924519084
-1.03554850504054, -0.767126959609174
-0.921943230495474, -0.681345438903942
-0.809221493436719, -0.599889116458231
-0.692410004787356, -0.521656849660811
0.667066279375065, -0.425466255309777
0.774399646388997, -0.515316822109311
0.875575830474282, -0.609478615432031
0.977846812359429, -0.710089315179119
1.09222264660399, -0.796703292811707
-1.23586852243528, -0.725995266835004
-1.11905676997801, -0.647763529001237
-1.00634829815457, -0.56630802350871
-0.892730119160428, -0.480525999956959
-0.770802355620467, -0.405632436965885
0.756815994757381, -0.318881464538108
0.871191374063394, -0.405495995817675
0.973475256200172, -0.506106235509812
1.07463821655873, -0.600268136506746
1.1819718981695, -0.690118213740905
-0.966581283973746, -0.342690447365553
-0.834100857131525, -0.291211874359477
0.828263833995305, -0.211747913273333
0.956849603269249, -0.271255127042495
-1.00852625945937, -0.183581801103772
-0.865351640461373, -0.173375082967075
0.863957287426321, -0.0973134676302955
1.00726950393857, -0.111666683350568
-1.00726984773378, -0.0311946313862896
-0.863957600190087, -0.0455475246344832
0.865351595137171, 0.0305140948724164
1.00852623608893, 0.0407204788257813
-0.956849879972841, 0.128406012894137
-0.828263975213574, 0.068899171473571
0.83410159714227, 0.14836315216833
0.966582165466922, 0.199841292749974
-1.18197578954395, 0.5472598548692
-1.07464242253594, 0.45740928806897
-0.973479459088064, 0.363247032518103
-0.871195256559839, 0.262636794997311
-0.756819422318525, 0.176022817367274
0.770805651292649, 0.262773590368893
0.892733821810858, 0.337666555279796
1.00635231699639, 0.42344853822465
1.11906083341994, 0.504904398429663
1.23587232206267, 0.583136665227439
-1.09222607416163, 0.653844645640869
-0.97785069485496, 0.56723011435446
-0.875580033362174, 0.466619412440322
-0.774403852366208, 0.372457973671535
-0.667070170749514, 0.282607896438072
0.692413804414741, 0.378798248053246
0.809225556878646, 0.457029985886657
0.92194724933729, 0.538485953619882
1.03555220768974, 0.624267514927685
1.15747997122956, 0.699161077922366
-1.02077823492445, 0.760978196907325
-0.892192465650695, 0.701470983140143
0.961701042877526, 0.762103067526489
1.09418146971953, 0.813581640530162
-0.985084319256416, 0.87542476144815
-0.841772098358714, 0.861071552357419
-0.694496082774818, 0.868446205689349
-0.546113036200948, 0.871090173300314
-0.398514396776137, 0.876600917516049
-0.251159201780491, 0.882835739151902
-0.104022659569298, 0.889627645528882
0.0429861411096285, 0.896641834384637
0.189880186564532, 0.903652895724589
0.336644980216614, 0.910416663387303
0.483275531456494, 0.916686383436986
0.629636940450925, 0.921778971226174
0.775883423824798, 0.926542271242875
0.919756526977044, 0.921223838932438
1.06293114862461, 0.931430550820795
-0.983690473711838, 1.00324021582085
-0.840515826834045, 1.01344657281178
-0.696642794499186, 1.00812792571498
-0.550396342817691, 1.01289108417099
-0.404034953489407, 1.0179835871216
-0.257404414695544, 1.02425325786007
-0.110639629934364, 1.03101699992895
0.0362544078320686, 1.03802805313856
0.183263200083508, 1.04504224937073
0.330399731083647, 1.05183418050267
0.477754909494329, 1.05806905048013
0.625353523144128, 1.06357987890251
0.773736531180212, 1.06622398778206
0.921012470476017, 1.0735988658703
1.06432472730076, 1.05924600169966