-1.12937019039424, -1.23760941535741
-0.986001608574728, -1.25584929963453
-0.8357204234695, -1.24576739047352
-0.685503381107684, -1.23664283447443
-0.537107013843842, -1.22221113181122
-0.389543433667399, -1.20574922968149
-0.24257743179452, -1.18803806209925
-0.0959721073476023, -1.16981782298715
0.0503641123191551, -1.15162821937998
0.196450676102, -1.13403354304465
0.342269387555719, -1.11769261491299
0.487625756955102, -1.1039421437987
0.632428081021021, -1.09283548156119
0.773939099800255, -1.09638879096729
0.916975363500752, -1.08790070606535
-1.12632274562981, -1.11139993850072
-0.983286459706427, -1.10291234165272
-0.841775536094915, -1.10646597797637
-0.696973251401844, -1.09535951824564
-0.551616903855672, -1.08160916598432
-0.405798205448121, -1.0652683060346
-0.259711651304864, -1.04767366483802
-0.113375441079872, -1.02948407280333
0.0332298713767453, -1.01126382473476
0.180195855512092, -0.993552625024503
0.327759407856113, -0.977090658394965
0.476155730694264, -0.962658839723679
0.626372706949394, -0.95353408284848
0.776653779494696, -0.943451804573314
0.920022410003015, -0.96169124570821
-1.15688484764716, -0.993554160400057
-1.02295227718925, -0.944483263833737
0.837800031970342, -0.783585479128711
0.96095744078942, -0.853031311776804
-1.21737471643406, -0.875844198886734
-1.09242455525075, -0.807488861834057
-0.972811934627349, -0.734003297314002
-0.852643957262506, -0.662083360827799
-0.730566066536317, -0.590809251864127
0.66688984465363, -0.335428930054495
0.76228026119494, -0.437276831110493
0.850008948525712, -0.543156369600937
0.938075820244231, -0.65660669219212
1.04193860582113, -0.755728607962152
-1.28925170893115, -0.754725348629538
-1.16717352340004, -0.683451934595212
-1.04701904227262, -0.611533665732022
-0.927393405939594, -0.538046796149632
-0.802443724022419, -0.46969068055333
0.768532470874339, -0.240893113179761
0.872394641470411, -0.340015632665024
0.960474529752214, -0.453464687212575
1.04818986190758, -0.559345019649015
1.14358072620308, -0.661192383964716
-0.996869434297419, -0.401054244432201
-0.862937094428207, -0.351982660434951
0.84951653918074, -0.143592961319468
0.97267372990466, -0.213039271268792
-1.03653595808538, -0.242625228089944
-0.893499698626357, -0.234137115880327
0.890451955176844, -0.0349332067196039
1.03382052403301, -0.0531731240549513
-1.0338212770535, -0.0896882185245949
-0.890452652668538, -0.107927667049179
0.893499398553854, 0.0912762568077912
1.03653568284314, 0.0997638599727387
-0.972673809500451, 0.0701900954631
-0.849516400685235, 0.000744262811204696
0.862938517727895, 0.209134030838355
0.996871088183442, 0.258204927407669
-1.14358521801754, 0.518334648601524
-1.04819480148135, 0.416486747544299
-0.960479520194629, 0.310605987871236
-0.872399242426957, 0.197156886457725
-0.768536456854124, 0.0980349706940422
0.802447427752402, 0.326831996417972
0.927397588934584, 0.395187333474139
1.0470236156006, 0.468674119188348
1.16717818692727, 0.540592834477473
1.28925607764633, 0.61186694344127
-1.04194259179683, 0.612870465476257
-0.938080421200106, 0.513747945980688
-0.850013938968127, 0.400297670259598
-0.762285200768716, 0.294418559005777
-0.666894336468093, 0.192571194691303
0.730570435251503, 0.44795084667586
0.852648620789736, 0.519224260710059
0.972816507955322, 0.591143750770327
1.09242873824426, 0.664629399154319
1.21737842016023, 0.732985514752067
-0.960958523491156, 0.710170617338348
-0.837801332767168, 0.640724307390696
1.02295270988672, 0.801621950877039
1.15688504975597, 0.850693534871382
-0.920021886299504, 0.818842367869591
-0.776653311319759, 0.800602457927817
-0.626372120764009, 0.810684379420619
-0.476155078402333, 0.819808935419721
-0.327758711138705, 0.834240638083133
-0.180195130962372, 0.850702540212954
-0.0332291290895582, 0.868413707795254
0.113376195357333, 0.886633946907384
0.259712415024093, 0.904823550514572
0.405798978806972, 0.922418226849913
0.551617690260769, 0.938759154981581
0.696974059660285, 0.952509626095801
0.841776383726561, 0.963616288333636
0.983287405656944, 0.960062969470829
1.1263236667508, 0.968551075358676
-0.916975663574362, 0.945039846991612
-0.773939375043045, 0.953527422853322
-0.632428454582138, 0.949973795990281
-0.487626169888695, 0.961080255721358
-0.342269822342391, 0.974830607982613
-0.196451123934763, 0.991171467932343
-0.0503645697914713, 1.00876610912893
0.0959716404335235, 1.02695570116363
0.242576952890114, 1.04517594923224
0.389542937025396, 1.06288714894255
0.537106489369307, 1.07934911557218
0.685502812207244, 1.09378093424367
0.835719788462237, 1.10290569111887
0.986000855556003, 1.1129879570581
1.1293694929038, 1.09474854158809