-1.19608430034282, -1.30387737968372
-1.05300434579197, -1.32666168101685
-0.898915035553001, -1.31028709156839
-0.746552978531918, -1.29160321710433
-0.597775735337998, -1.26493127130338
-0.450679761755717, -1.23515304633239
-0.304667855011146, -1.20361580821588
-0.159258884458612, -1.1713962481854
-0.0142302973503061, -1.13925716710832
0.130513209313642, -1.10800564975281
0.27498440978875, -1.07866121452241
0.418982987579718, -1.05330849274288
0.562164845601909, -1.03283489902628
0.700881065190989, -1.03377963255747
0.843372820466503, -1.02412180393105
-1.19235187870083, -1.18094901900214
-1.04986009908562, -1.17129154285184
-0.911143944329081, -1.17223648866564
-0.76796210740435, -1.15176302711289
-0.623963539196307, -1.12641037822192
-0.479492343711932, -1.09706598326517
-0.334748840934945, -1.06581448604572
-0.189720258449398, -1.03367541179114
-0.0443112949738854, -1.00145584749455
0.101700599868115, -0.969918592392721
0.248796553079673, -0.940140331549657
0.397573761347236, -0.913468316815947
0.549935764471458, -0.894784315773789
0.704024981442553, -0.8784094528891
0.847104978763286, -0.901193480662384
-1.22695511114789, -1.06791114856092
-1.09655184755667, -1.01057524599821
0.785362889943165, -0.716459519199658
0.895311632077043, -0.803192515247314
-1.29640912295977, -0.958304591401401
-1.17898414005145, -0.877312467751138
-1.06982013691514, -0.788296023875048
-0.960447256769871, -0.702361363050298
-0.847713454832593, -0.618099500027104
0.766363704841238, -0.213985226080558
0.827421860105946, -0.337548677394229
0.873148521588466, -0.464615221945464
0.916120973548657, -0.605859814909633
0.99073752711748, -0.729726345970515
-1.38108857919136, -0.846679605003835
-1.26835439873164, -0.762418407199173
-1.15899593474243, -0.676486247402744
-1.04981796428533, -0.587467731189462
-0.932393542076133, -0.50647486676589
0.889086427374423, -0.153420394203592
0.963702323215919, -0.277287330859038
1.00668882392651, -0.418529724866985
1.05240127151868, -0.545597952216719
1.11345994040331, -0.669161074073609
-1.13225477135618, -0.454207040217963
-1.00185174008597, -0.396870544495109
0.984515306595484, -0.0799574687917207
1.094463950313, -0.1666907284473
-1.17894711682333, -0.293490779825556
-1.03645536514767, -0.283832919260014
1.0327221976302, 0.0180433805121988
1.17580213318272, -0.00474096290248375
-1.17580319607627, -0.138120571940162
-1.03272320743283, -0.160904609374408
1.03645461683129, 0.140971724986622
1.17894639568687, 0.150629208549234
-1.09446326053216, 0.0238413816782406
-0.984514518404333, -0.0628916143730451
1.00185342009241, 0.254021625015796
1.1322566836803, 0.311357527581473
-1.11346448135483, 0.526303645204257
-1.05240632609343, 0.40274019388653
-1.00669404483681, 0.275671613648054
-0.963707212651197, 0.134429056360635
-0.889090659084894, 0.0105625253151393
0.932397372577106, 0.36361615258255
1.04982235548288, 0.444608276236521
1.15900073884127, 0.533626755824783
1.26835923876984, 0.619559380935968
1.38109304069839, 0.703821243958297
-0.990741758821646, 0.586868477081224
-0.9161258629834, 0.463001540407542
-0.87315374249876, 0.321757110726533
-0.827426914680696, 0.19469091906404
-0.766368245792755, 0.0711277972112072
0.847717916339628, 0.475241138981566
0.960452096808069, 0.559502336787093
1.06982494101397, 0.645436532297087
1.17898853124728, 0.734453012794234
1.29641295345485, 0.815445877219511
-0.895312879601719, 0.660331402495045
-0.785364235883323, 0.573598142840905
1.09655172417645, 0.867713703771466
1.22695475544762, 0.925050199490548
-0.847103952853441, 0.758344281387229
-0.704024008622423, 0.735559947638128
-0.549934690506701, 0.751934553291955
-0.397572633485999, 0.770618427756383
-0.248795390292515, 0.797290373557724
-0.101699416710463, 0.827068598528909
0.0443124900339777, 0.858605836645519
0.189721460586454, 0.890825396676046
0.334750047694758, 0.922964477753141
0.47949355435876, 0.954215995108621
0.623964754833995, 0.983560430338978
0.767963332625202, 1.00891315211833
0.911145190647962, 1.02938674583524
1.04986141365814, 1.0284420011697
1.19235316609562, 1.03809985431639
-0.843373568783818, 0.881260609656067
-0.7008817863281, 0.890918061284801
-0.562165634991733, 0.889973126609433
-0.418983798066414, 0.91044658816252
-0.274985229858132, 0.93579923705331
-0.13051403437363, 0.965143632010014
0.0142294684034106, 0.996395129229447
0.159258050888956, 1.02853420348403
0.304667014364411, 1.06075376778067
0.45067890920628, 1.09229102288261
0.59777486241761, 1.12206928372586
0.746552070684736, 1.14874129845997
0.898914073808579, 1.16742529950248
1.05300328290113, 1.18380014617749
1.1960832905414, 1.16101615082118