-1.46386941647619, -1.2226436821012
-1.32313243063559, -1.26712225001631
-1.1531724543341, -1.25914731121958
-0.997182430244804, -1.21760915400352
-0.853674936054876, -1.15725404455744
-0.717893463178554, -1.08806199788004
-0.586714214563595, -1.01460992709276
-0.457982977817437, -0.939666682073333
-0.330298008919485, -0.865322882066291
-0.202624061500718, -0.793805835256953
-0.0741050503949615, -0.728166987514623
0.0557789355643055, -0.673456668308498
0.18613941124631, -0.636725652858492
0.310707409113704, -0.634599479184059
0.446709226070106, -0.667155992190572
-1.43355698247554, -1.09009352741793
-1.29755521486698, -1.12265023998311
-1.17298723927052, -1.12052412476258
-1.04262676566, -1.08379316622268
-0.912742776954365, -1.02908287759142
-0.784223763195782, -0.963444047514829
-0.656549814792919, -0.891927009837539
-0.528864846960957, -0.817583213427425
-0.400133613890675, -0.74263996751395
-0.268954372719367, -0.669187890807647
-0.133172912952983, -0.599995830711548
0.0103345591091371, -0.539640693234008
0.16632455318837, -0.498102483041134
0.336284501705461, -0.490127393938267
0.477021511237015, -0.534605868758489
-1.39927322946893, -0.947529096868832
-1.26161507774151, -0.991296738791782
0.426567610443922, -0.342051447858136
0.533932321029874, -0.431136840510797
-1.34466555638792, -0.807089146697729
-1.21761856461579, -0.867015849193047
-1.10411227382555, -0.946445951091975
-0.980596166846962, -1.02617463882106
-0.851751044507787, -1.0951840459502
0.390510766172094, 0.159792862339209
0.455660386838888, 0.0379748976873975
0.505047869249445, -0.0886861785537644
0.552608968082503, -0.230467483972332
0.630568311488935, -0.352846694349962
-1.27701300293867, -0.67724443264111
-1.14816794940031, -0.746253951357023
-1.02466337656761, -0.825988421540994
-0.911145657758576, -0.905412699227456
-0.784098574186225, -0.965339269064588
0.511346902637413, 0.225167172906673
0.589305872291071, 0.102787725072778
0.63687823328352, -0.0389877375040939
0.686254353927544, -0.165654371113428
0.75140425879212, -0.287472137089204
-0.867150603113165, -0.781131916067092
-0.729492305200206, -0.824899160623206
0.607983817716992, 0.303455683715281
0.715348600028963, 0.214370267228455
-0.831210738605736, -0.649778235504876
-0.695208910396272, -0.682334752604573
0.664894718039213, 0.406924721984089
0.805631673594133, 0.362446128734265
-0.805633622152875, -0.50530614977893
-0.664896628191909, -0.549784628773685
0.695207147160712, 0.539474867323626
0.83120892274094, 0.506918153959497
-0.715344772362354, -0.357220790570277
-0.607980061780413, -0.446306183226961
0.729496656783587, 0.682048715175209
0.867154808510811, 0.638281073250555
-0.7514073732572, 0.144614102323192
-0.686257752588652, 0.022796137662021
-0.636881717579058, -0.103870695157768
-0.58930917134865, -0.245646244009629
-0.511349827942076, -0.36802545436515
0.784098573247637, 0.822479248042478
0.911145565023861, 0.762552545552097
1.0246633032106, 0.683128200255138
1.14816796278301, 0.603393755930329
1.27701308512699, 0.534384348790123
-0.63057123679188, 0.209988412890657
-0.552612267140155, 0.0876089650333114
-0.505051353544983, -0.0541722541080978
-0.455663785499996, -0.180833131138805
-0.390513880637174, -0.30265089710522
0.851751126696104, 0.952323962099216
0.980596180229662, 0.883314443394364
1.10411220046854, 0.803585729806119
1.21761847187903, 0.724155695515821
1.34466555544855, 0.664229125675738
-0.533934321711194, 0.288276923700856
-0.426569539400181, 0.199191507212668
1.261613526524, 0.84843647867523
1.39927182443568, 0.804669234116167
-0.477017664771494, 0.391755379270222
-0.336280693647224, 0.347276790196519
-0.166320707513249, 0.355251740811059
-0.0103306834275387, 0.396789898030008
0.133176810759603, 0.457145007477259
0.268958283634257, 0.526337054155099
0.400137532248314, 0.599789124942518
0.528868768994117, 0.674732369961936
0.656553737892154, 0.749076169968854
0.784227685311454, 0.820593216777917
0.912746696418297, 0.886232064519733
1.04263068237936, 0.940942383724871
1.17299115806413, 0.977673399173487
1.2975591556175, 0.979799575744534
1.43356097585688, 0.947243059439341
-0.446710989306171, 0.524296106907783
-0.310709224975628, 0.491739397637869
-0.186141249056587, 0.493865509958292
-0.0557807754432792, 0.530596468496827
0.0741032132641466, 0.585306757127105
0.202622227023816, 0.65094558720318
0.330296175427212, 0.722462624880196
0.457981143259259, 0.796806421290185
0.586712376329185, 0.871749667203651
0.717891617499592, 0.94520174391009
0.853673077264308, 1.01439380400663
0.997180549323642, 1.07474894148534
1.15317054339927, 1.11628715168111
1.32313048207931, 1.12426222897175
1.46386750632498, 1.07978377531209