-1.11126494909958, -1.13169098316973
-0.96855451669143, -1.14658227394412
-0.821287864998223, -1.15108023890453
-0.674521171465777, -1.14696668649737
-0.529106513734232, -1.13468365473554
-0.385252629477254, -1.11641653283717
-0.242970274649127, -1.09417444848686
-0.102023498491736, -1.0700384640439
0.0379023296610282, -1.04607119768992
0.177137511572686, -1.02429071745388
0.315964933232155, -1.00662590938575
0.454475012984915, -0.994951820459559
0.592593815045824, -0.990715168909675
0.729629890305239, -0.996741813892819
0.870837334397453, -1.00878876596732
-1.09887168475382, -0.990341036970712
-0.957664219225898, -1.00238776871334
-0.820628122997353, -1.00841422916209
-0.682509309830533, -1.00417741681457
-0.543999223553073, -0.992503198425097
-0.405171795480773, -0.974838294608572
-0.265936603538673, -0.953057754513014
-0.126010759420102, -0.929090465746447
0.0149360392834609, -0.904954497478886
0.1572184220838, -0.882712468522587
0.301072336823893, -0.86444544126616
0.446487023102028, -0.852162542659385
0.593253737123447, -0.848049159626505
0.740520397806926, -0.852547325445503
0.883230808219039, -0.867438835442661
-1.0877585667453, -0.848559236253263
-0.945520427167337, -0.857098812679109
0.762600278976412, -0.70446594874421
0.902249992855678, -0.730544799831762
-1.08231624409647, -0.708681346333533
-0.938624476382013, -0.709829573512645
-0.793638385314277, -0.701527959484402
-0.652408526638938, -0.695350772273154
-0.510713942765809, -0.693934284638351
0.391304399533696, -0.419553611972949
0.526398986615951, -0.460799141331937
0.659093804195989, -0.50742649789451
0.795279623585223, -0.557981307267693
0.933842787195052, -0.596458120949917
-1.08318370188594, -0.567089146501439
-0.941489109310146, -0.565672566094612
-0.800269570798862, -0.559496664123822
-0.655273081082056, -0.551193752827548
-0.511581319569807, -0.552342097388372
0.432020051769111, -0.284507950593285
0.570583210581318, -0.322984745608269
0.706779398213526, -0.373538221034773
0.839463861319621, -0.420166918477089
0.974558443720011, -0.46141245928323
-0.648377384371444, -0.403924836098885
-0.506139266908085, -0.412464673534254
0.463613166204042, -0.150421847331248
0.603262922770838, -0.176500478056997
-0.636233356474484, -0.258635918893844
-0.495025908632482, -0.270682869703898
0.482632147053239, -0.013527777813325
0.625342575953181, -0.0284190740251279
-0.625342843411491, -0.114441427722952
-0.482632434928964, -0.129332938676948
0.495025410706596, 0.127822167116557
0.636232878858928, 0.115775436015532
-0.603261633969099, 0.0336507762914587
-0.46361192009015, 0.00757192520253887
0.506139858915775, 0.269614796103096
0.64837799849388, 0.261075219677889
-0.974558843614114, 0.318552284791819
-0.839464256533821, 0.277306755431251
-0.70677979812353, 0.23067806867328
-0.570583619561003, 0.18012458949538
-0.432020455952791, 0.141647775815518
0.511580851363589, 0.409481857753561
0.655272619079768, 0.408333630575818
0.800269069316277, 0.416636574803046
0.941488568821143, 0.422812431813381
1.08318315269419, 0.424228919448008
-0.933843191378699, 0.453597946171483
-0.795280032564366, 0.415121151153153
-0.659094204105994, 0.364566345533017
-0.52639938183015, 0.317938978286098
-0.391304799427799, 0.276693437481538
0.510713393574062, 0.55107405758492
0.652407986149935, 0.552490637991923
0.793637883831692, 0.558667870163626
0.938624014378861, 0.566969451259452
1.0823157758902, 0.565821106697987
-0.902250076943377, 0.587684049434617
-0.762600320377255, 0.56160541870896
0.945519711089182, 0.714238367988768
1.0877578285519, 0.705698530553006
-0.883229765892943, 0.724588947222127
-0.740519335064426, 0.709697651967095
-0.593252682485269, 0.705199690216499
-0.44648598895326, 0.709313242623864
-0.301071331222132, 0.721596274385944
-0.157217446965495, 0.739863396284526
-0.0149350921376106, 0.762105480634994
0.126011684019661, 0.786241465078047
0.265937512172443, 0.810208731432068
0.40517269408426, 0.831989211668091
0.544000115744027, 0.84965401973616
0.682510195497205, 0.861328108662263
0.820628997558666, 0.865564760212093
0.957665071811646, 0.85953811410515
1.09887251702903, 0.847491162653341
-0.870837832323761, 0.865928063379802
-0.72963036792016, 0.853881331015221
-0.592594270683911, 0.847854871690911
-0.454475457516533, 0.852091684038379
-0.315965371238654, 0.863765902427759
-0.177137943166058, 0.881430806244229
-0.0379027512237975, 0.903211346339772
0.102023092894792, 0.927178635106377
0.242969891598235, 0.951314603374035
0.385252274398331, 0.973556632330492
0.529106189138083, 0.991823659587127
0.674520875415801, 1.00410655819415
0.821287589436782, 1.00821994122723
0.96855424923341, 1.00372177219717
1.11126466122452, 0.988830266679388