-1.18884538440918, -1.23885206641425
-1.04736710937347, -1.26447471600637
-0.896715957428959, -1.27285989617749
-0.7466314074575, -1.26459965007998
-0.599758339250219, -1.24029073736409
-0.457089199072712, -1.20411760916393
-0.318650071705402, -1.16021418035342
-0.183549853923578, -1.11285151940715
-0.0504729624897318, -1.06617187999696
0.0819293631229931, -1.02411558861755
0.214673272923116, -0.990340176742718
0.348088186316233, -0.968249156724542
0.48175356805686, -0.960231660716069
0.613818147663587, -0.970689174284958
0.752932862105283, -0.991955577936058
-1.16709165200372, -1.09861640378397
-1.02797687252117, -1.11988240631546
-0.895912250989632, -1.13033957950161
-0.762246862217545, -1.12232177214864
-0.628831959276996, -1.10023049266223
-0.496088061529659, -1.06645488351444
-0.363685734283608, -1.02439846451004
-0.230608817069863, -0.97771877237437
-0.0955085458259888, -0.930356138025456
0.0429306580425956, -0.88645281865975
0.185599884933886, -0.850279884202469
0.332473030610674, -0.825971246472594
0.48255762458541, -0.817711345601423
0.633208773924731, -0.826096918310431
0.774686977008514, -0.851719969549183
-1.14686481482167, -0.957830232505399
-1.00571236794063, -0.972827730767099
0.671471763849791, -0.676182903432253
0.805894594743011, -0.719535667604765
-1.13791757657784, -0.820858626127967
-0.993331229585997, -0.820875009753778
-0.84634492504031, -0.80116955641638
-0.707201672645107, -0.786281629496636
-0.566724906014325, -0.781296652150068
0.369822847265726, -0.29833194304175
0.491952091994503, -0.366789381432164
0.607390790607859, -0.444213748996691
0.727820022467067, -0.530572268634862
0.857058012473441, -0.595567852146931
-1.14173882465168, -0.680551481557352
-1.00126204689205, -0.675566336664087
-0.86212923689287, -0.660680740797064
-0.715132345399639, -0.640972928627225
-0.570546010802799, -0.640989527847253
0.437246266277199, -0.176015531425853
0.566484275847346, -0.241011048459183
0.686924050220633, -0.327367147117845
0.802352246023315, -0.404793967348128
0.924481467974175, -0.473251452383797
-0.702751670891308, -0.48902071069991
-0.561599285637163, -0.50401870247179
0.488410071391454, -0.0520487539102731
0.622833042829361, -0.0954011086112312
-0.680486729551199, -0.3419661435845
-0.541372008305624, -0.363232545539206
0.519617330649631, 0.0801356518943804
0.661095599205217, 0.0545129940647224
-0.661096093110576, -0.197373883109913
-0.519617893326099, -0.222996935700798
0.541371061792299, 0.220371313118124
0.680485846074484, 0.199105311525977
-0.622830690555432, -0.0474485079043559
-0.488407859663195, -0.0908012720792076
0.561600314900762, 0.361168846074805
0.702752761782042, 0.346171347814417
-0.924482023068721, 0.33039109080499
-0.802352778341699, 0.261933652412146
-0.686924589425283, 0.184506868931578
-0.566484847864463, 0.09815076520687
-0.437246857860978, 0.0331551817008649
0.570545137217562, 0.498129090773771
0.715131484212179, 0.498112707150317
0.862128298450424, 0.51782057641175
1.00126104115031, 0.532706087404143
1.14173780778091, 0.537691064750516
-0.857058604057249, 0.452707502420887
-0.727820594483707, 0.387711985379651
-0.607391329812508, 0.301353470810424
-0.491952624312887, 0.223929066496182
-0.369823402360272, 0.155471581462944
0.566723889143556, 0.638436235343231
0.707200666903365, 0.643421380236692
0.846343986597865, 0.658309392031067
0.993330368396957, 0.678014788274423
1.13791670299243, 0.67799818905333
-0.805894798942134, 0.576674279938278
-0.671471827505344, 0.533321925237613
1.0057110429051, 0.82996700620281
1.14686342815811, 0.814969014430338
-0.774685123756766, 0.708870047421912
-0.633206851903548, 0.683247390944326
-0.482555698041374, 0.674862216249314
-0.332471148070597, 0.683122462347518
-0.185598079864157, 0.707431375064209
-0.0429289396874839, 0.743604503265019
0.0955101876791495, 0.787507932075959
0.230610405460595, 0.834870593022425
0.363687296894434, 0.881550232432596
0.49608962250752, 0.923606523811803
0.628833532308313, 0.957381935686317
0.762248445702314, 0.979472955704081
0.895913827443993, 0.987490451712221
1.02797840497197, 0.977032935936811
1.16709312141757, 0.955766533042534
-0.752933808619327, 0.849094345514735
-0.613819031139078, 0.827828342227598
-0.481754407526401, 0.817371171248655
-0.348089018753253, 0.825388978601304
-0.21467411581182, 0.847480258087303
-0.0819302180638123, 0.881255867234769
0.0504721091826003, 0.923312286238973
0.183549026396338, 0.96999197837462
0.318649297639833, 1.01735461272373
0.457088501507741, 1.06125793208987
0.599757728398197, 1.0974308665478
0.746630874074145, 1.12173950427847
0.896715468048195, 1.12999940515034
1.04736661546866, 1.12161382696317
1.1888448217338, 1.09599078260765