-1.29957375095083, -1.4078616455083
-1.16199880189552, -1.45161220137548
-1.00384399754402, -1.46648450314094
-0.846924035511512, -1.44650801167318
-0.700431825072636, -1.39390132247102
-0.567917183151096, -1.3186807782291
-0.448520030496576, -1.23043247658939
-0.338033848706857, -1.13769386525841
-0.23095168090011, -1.04768019436295
-0.122068283410678, -0.966870157092971
-0.00780693456062249, -0.901534578866194
0.112755119763168, -0.858004664957695
0.237370805784738, -0.840868106754998
0.359883232135383, -0.85759445330328
0.49356915130763, -0.895166458752254
-1.26119698924772, -1.27023817968888
-1.12751091493887, -1.30780965611898
-1.00499841910324, -1.32453557073658
-0.880382757589344, -1.30739860276486
-0.759820779685075, -1.26386834787136
-0.645559517065711, -1.19853251332768
-0.536676173524403, -1.11772230715291
-0.429593997158987, -1.02770855396028
-0.319107730184593, -0.934969952129336
-0.199710421661541, -0.846721766655067
-0.0671955832257338, -0.771501465580038
0.0792968093514072, -0.718895158194336
0.236216865929567, -0.698919170329276
0.394371637084969, -0.713792032783737
0.531946416777205, -0.757543125280632
-1.22330852822948, -1.1315699808636
-1.08543760389875, -1.16001955019119
0.461126713532491, -0.565049534085589
0.582320388006474, -0.634206874086289
-1.20508464810754, -0.999216061644076
-1.05909809011657, -1.00082897087675
-0.908477444050163, -0.965514375200365
-0.772751292435351, -0.940069613925488
-0.633955491342453, -0.93315147911637
0.31368296623554, -0.0755613116851604
0.404720867281062, -0.179650009152624
0.478971573965705, -0.294623451113588
0.556142444971582, -0.428335972672728
0.65995916795616, -0.53101767943585
-1.20972629844346, -0.860670439460188
-1.07093048685846, -0.853752076819338
-0.935214465987325, -0.828311671522793
-0.784583483333493, -0.792992672219261
-0.638596956933288, -0.794605885706138
0.416093882997382, 0.0165757931550738
0.519910676378656, -0.0861058231901292
0.597091818804704, -0.219813879945564
0.671332295821392, -0.334791856415932
0.762370138049498, -0.438880614836702
-0.758244864674995, -0.633802725547593
-0.62037409884877, -0.662253039565972
0.493733005584599, 0.11976328092544
0.614927038977303, 0.0506065028474951
-0.71617095376792, -0.486012892019514
-0.582485022531346, -0.523584896453215
0.544106543733662, 0.243099772911223
0.681681479320721, 0.199349205803205
-0.681682529334514, -0.342210465217976
-0.544107756147058, -0.38596155915634
0.582483303467014, 0.380723237972411
0.716169386462013, 0.34315176245403
-0.614922981557685, -0.19345616976118
-0.493729307086485, -0.262613509765313
0.620376242314639, 0.519403234995976
0.75824716664581, 0.490953665670769
-0.762371206688861, 0.296020254436591
-0.6713333056417, 0.191931556962684
-0.597092818043002, 0.0769536371987967
-0.519911727950677, -0.0567544065647488
-0.416095004968233, -0.159436113312691
0.638595644606225, 0.651745356016509
0.784582202601118, 0.650132446787726
0.935213067742796, 0.685451520290315
1.07092900027734, 0.710891803734262
1.2097248013708, 0.71780993854278
-0.659960289927019, 0.388157359276826
-0.556143496543927, 0.285475742913475
-0.478972573204003, 0.151763208366821
-0.40472187710137, 0.0367897096993771
-0.313684034874903, -0.0672990487149499
0.633953994269798, 0.790290978198963
0.772749805854234, 0.797209340840412
0.908476045805634, 0.822654223967887
1.05909680938148, 0.857968745441719
1.20508333577997, 0.856355531953013
-0.582321167338027, 0.491344847049747
-0.461127133946942, 0.422188068972505
1.08543542804045, 1.01715869211459
1.22330619386482, 0.988708378095447
-0.531943151358718, 0.614693137235018
-0.394368209269468, 0.57094257156858
-0.236213399924602, 0.556070278840302
-0.079293437893431, 0.57604677031087
0.0671987725426883, 0.628653459515768
0.199713414461002, 0.703874003759385
0.319110567112909, 0.792122305399687
0.429596748901342, 0.884860916730549
0.536678916708314, 0.974874587625554
0.645562314199271, 1.05568462489484
0.759823663051692, 1.12102020312064
0.88038571737814, 1.16455011702783
1.00500140340227, 1.1816866752293
1.12751382546391, 1.16496032475455
1.26119974801404, 1.12738831940865
-0.493570870373051, 0.752304800271204
-0.359884799438925, 0.714733323739217
-0.237372299309127, 0.698007413047648
-0.112756637792645, 0.715144381018151
0.00780534011428124, 0.758674635910342
0.12206660273601, 0.824010470453045
0.230949946278844, 0.904820676627122
0.338032122644484, 0.99483442981929
0.448518389617592, 1.08757303165013
0.567915698138032, 1.17582121712498
0.700430536570612, 1.25104151820171
0.846922929144996, 1.30364782559015
1.00384298572182, 1.32362381345803
1.16199775188294, 1.30875094196393
1.2995725385391, 1.26499985926276