-1.33204634418172, -1.46807369551658
-1.19588809047774, -1.51711249943133
-1.03340226384321, -1.53114144954586
-0.874479892512263, -1.50225519684951
-0.731038329869255, -1.43587734380477
-0.606298891667042, -1.34551252912224
-0.497871165736939, -1.24250741567008
-0.39977925935698, -1.1358645383127
-0.304991362122922, -1.03263722392141
-0.207047399552023, -0.939143378111958
-0.101405201531607, -0.861951385056719
0.0133324583917161, -0.808460593076537
0.134290052991401, -0.784762154556524
0.253051609932868, -0.800963485243569
0.384444927511561, -0.843203972248508
-1.2888082298825, -1.33127533185001
-1.15741473429461, -1.3735152970155
-1.0386531049221, -1.38971622964512
-0.917695545810324, -1.36601742218995
-0.802957974958679, -1.31252633489946
-0.69731587324434, -1.23533412803028
-0.599371973262418, -1.14184014376598
-0.504584077546593, -1.03861275884271
-0.406492097862257, -0.931969880166986
-0.298064225395493, -0.828964849302939
-0.173324589637074, -0.738600227456983
-0.0298828282033319, -0.672222703409364
0.129039662855449, -0.643336918219007
0.291525471140935, -0.657366417315774
0.427683536049835, -0.70640575562727
-1.24499605299237, -1.19309483942693
-1.1086301475534, -1.22608146473555
0.369030910323787, -0.509311205041872
0.484051626568493, -0.586689067246427
-1.22324284572798, -1.06218131411283
-1.0767970060029, -1.06459585922105
-0.924717693459339, -1.02408851259827
-0.790080515926426, -0.995359665803669
-0.651744155883074, -0.988193106678896
0.292629048270507, 0.00946369626922666
0.368948588844362, -0.105108422122211
0.42362213579591, -0.229856766605914
0.478667045758359, -0.377603150714023
0.569714566891789, -0.492485689700982
-1.2276839387223, -0.924112356749616
-1.08934756885514, -0.916945560552039
-0.954720290736332, -0.888221860283566
-0.802630860690156, -0.847709314133727
-0.656185061186443, -0.85012418075118
0.405349248896482, 0.0874529050298013
0.496396855529994, -0.0274295504139476
0.551451807585505, -0.175170680832657
0.606115345032758, -0.299924356087705
0.682434817723874, -0.414496529507437
-0.770798813180659, -0.686224350072798
-0.634433101852958, -0.719211773524389
0.491012495900121, 0.181654340461367
0.606033659265216, 0.104277051862235
-0.722013619951321, -0.538790851516923
-0.590620288157177, -0.581031338418995
0.547380183252566, 0.301371312386123
0.683538419398526, 0.252332495802547
-0.683539734619336, -0.395193776912259
-0.547381678230191, -0.444233116795305
0.590618295431657, 0.438169675673992
0.722011801375545, 0.395929711177662
-0.606029028497659, -0.247126715074632
-0.49100831225668, -0.324504577282911
0.634435747774888, 0.57636201923041
0.770801653214358, 0.543375393924486
-0.68243616600981, 0.271636335098406
-0.606116625432833, 0.157064216697536
-0.551453069217911, 0.0323105967961391
-0.496398168521907, -0.115430511902137
-0.405350647388655, -0.230313050870307
0.656183679585098, 0.707263693410275
0.80262951931438, 0.704849148306515
0.954718822583441, 0.745361770379083
1.08934600938492, 0.774085341718831
1.22768236942932, 0.781251900842794
-0.569715965383836, 0.34962554385898
-0.478668358751021, 0.234743088393223
-0.423623397428316, 0.0869966825693963
-0.368949869244436, -0.037751717267958
-0.292630396556443, -0.152323890678258
0.651742586590097, 0.845332650772074
0.790078956456206, 0.85249944697046
0.924716225306448, 0.881228422693784
1.07679566462399, 0.921735693390059
1.22324146412595, 0.91932082677051
-0.484052718378051, 0.44382697929329
-0.369031555014734, 0.366449690694957
1.10862771213435, 1.08322065745218
1.24499342345994, 1.05023323399971
-0.427679755571664, 0.563555802352601
-0.291521510908848, 0.514516987340778
-0.129035677356406, 0.500488047940849
0.0298866939724862, 0.529374300641373
0.17332825661129, 0.595752153689528
0.298067694808943, 0.686116968373644
0.406495420735647, 0.789122081825959
0.504587327114107, 0.895764959182869
0.599375224348635, 0.998992273573582
0.697319186921664, 1.09248611938237
0.802961384945298, 1.16967811243663
0.917699044872212, 1.22316890441531
1.03865663947529, 1.24686734293374
1.15741819117356, 1.23066600781279
1.28881151261152, 1.18842552024082
-0.38444692023829, 0.700342309503213
-0.253053428505757, 0.658102344905649
-0.134291793883282, 0.641901416708781
-0.0133342347680934, 0.665600224162388
0.101403336087141, 0.719091311451367
0.2070454378047, 0.79628351831957
0.304989337788751, 0.889777502583208
0.399777233505046, 0.993004887505899
0.497869213187882, 1.09964776618116
0.606297085651248, 1.20265279704536
0.731036721405107, 1.2930174188929
0.874478482834645, 1.35939494294393
1.03340097389136, 1.38828072813847
1.19588677525844, 1.37425121832526
1.332044849206, 1.32521189110693