-1.00749246269811, -1.10667368673354
-0.86478400586003, -1.11001604921191
-0.721961121047255, -1.10871360915578
-0.578794605890173, -1.1086437525699
-0.435762509364771, -1.10773762599285
-0.292784488526913, -1.10650406429282
-0.149884997011577, -1.10500466150249
-0.00704065637524557, -1.10337919702736
0.135739482793281, -1.10175385652591
0.278446569511533, -1.1002593992404
0.421104176413628, -1.09901175795925
0.563689400264062, -1.09820483577402
0.706281249834278, -1.09758246197507
0.848397506990478, -1.09946534006753
0.991016154418071, -1.09784771156107
-1.0067142570244, -0.966048247162248
-0.864095609713798, -0.964430423118557
-0.721979335571405, -0.966313139798945
-0.579387471698996, -0.965690630208348
-0.436802233426899, -0.964883602058218
-0.294144612072643, -0.963635884822142
-0.151437510653564, -0.962141381804666
-0.00865735644837452, -0.960516025923743
0.134186999569665, -0.958890576499015
0.277086506738199, -0.957391219194266
0.420064543340567, -0.956157733366258
0.563096655551872, -0.955251712920023
0.706263185653142, -0.955181992583398
0.849086086946032, -0.953879714838554
0.991794541196307, -0.957222272901773
-1.01331551299697, -0.827750277054159
-0.87174321938802, -0.814765932194817
0.859009828191662, -0.804051142722479
1.00031940813063, -0.819317826975245
-1.0322630260325, -0.691434751043925
-0.890747096859583, -0.66564428087931
-0.750497488884385, -0.626966101541744
-0.614323963695212, -0.592093301283389
-0.476141107483876, -0.563109289817978
0.468317134646382, -0.544214711156023
0.605869943170172, -0.575883980704428
0.741250039884874, -0.613499733009268
0.880690665134706, -0.655075607004903
1.02170639840128, -0.68353960579576
-1.0606906968525, -0.553350118133829
-0.92250784453407, -0.524366097175608
-0.786345016952873, -0.489493378835142
-0.646084697928858, -0.450815112134565
-0.504568777392459, -0.425024657894453
0.499427363630743, -0.406756424491769
0.640443086977688, -0.435220413729776
0.779894420844152, -0.476796193400857
0.915263818235271, -0.514412044201974
1.05281662319443, -0.546081317787907
-0.66508918545857, -0.301693948726432
-0.523516871948242, -0.288709822585244
0.520814935203965, -0.270978906638294
0.662124539007509, -0.286245374327274
-0.672736582499292, -0.152029462811624
-0.530117935046724, -0.150411828214016
0.529339611375519, -0.133074434646797
0.672048067703027, -0.136416803516321
-0.672048002270108, -0.00644383109693954
-0.529339548149552, -0.0097863907612379
0.530117816861985, 0.00755100359371094
0.672736464365391, 0.00916882921272954
-0.662124169581033, 0.143395945490116
-0.520814589642285, 0.128129261235859
0.523516652460141, 0.145860179772409
0.665088946068913, 0.158844524633187
-1.05281695469905, 0.403221170983202
-0.915264146177459, 0.371551901433633
-0.779894752351264, 0.333936057560693
-0.640443424211016, 0.292360275135058
-0.499427690944341, 0.263896276344251
0.504569047853634, 0.282164499711515
0.6460849770269, 0.307954969876372
0.786345287892136, 0.346633240787008
0.922508110192816, 0.381505949470187
1.06069096640206, 0.410489960936673
-1.02170672571469, 0.540679457647456
-0.880691002367129, 0.512215468407997
-0.741250371391987, 0.470639597169104
-0.60587027111236, 0.433023837936087
-0.468317466151004, 0.401354564351318
0.476141377033437, 0.420249132620822
0.614324229353957, 0.449233153577968
0.750497759823648, 0.48410596349361
0.890747375956688, 0.522784138618942
1.03226329649348, 0.548574592860198
-1.00031915414126, 0.676456975502235
-0.859009550338548, 0.661190507813684
0.871742888428022, 0.67190530202996
1.01331520193752, 0.684889428170695
-0.991794386397955, 0.814372653565616
-0.849085929941574, 0.81103028629742
-0.706263044934982, 0.812332729810441
-0.563096529777899, 0.812402586396262
-0.420064433252525, 0.81330871297333
-0.277086412414683, 0.814542274673364
-0.134186920899357, 0.816041677463705
0.0086574197369703, 0.817667141938834
0.1514375589055, 0.819292482440288
0.294144645623762, 0.820786939725807
0.436802252525874, 0.822034581006965
0.579387476376326, 0.822841503192183
0.721979325946603, 0.823463876991198
0.864095583151991, 0.821580995591824
1.00671423041096, 0.823198628613839
-0.991016272603557, 0.95498688694057
-0.848397625124187, 0.95660470646997
-0.706281351030847, 0.954721993098159
-0.563689487158373, 0.955344502688826
-0.421104248886258, 0.956151530838949
-0.278446627531984, 0.957399248075032
-0.135739526112896, 0.958893751092513
0.00704062809229712, 0.96051910697344
0.149884984110333, 0.962144556398174
0.292784491278857, 0.963643913702929
0.435762527881209, 0.964877399530941
0.578794640092485, 0.965783419977193
0.72196117019376, 0.96585314031376
0.864784071292826, 0.96715541460001
1.00749252592484, 0.963812861325321