-0.999816316590949, -1.04234006450595
-0.857004616238217, -1.04341672449184
-0.714296772091633, -1.04276035260118
-0.571415445670939, -1.04287456748203
-0.428562391046385, -1.04285463751319
-0.2857044034043, -1.04285809408785
-0.142857274215227, -1.04285747816984
-1.27129766627588e-14, -1.0428575991733
0.142857274215201, -1.04285747816983
0.285704403404279, -1.0428580940878
0.428562391046379, -1.04285463751312
0.571415445670939, -1.04287456748199
0.714296772091634, -1.04276035260115
0.85700461623822, -1.04341672449182
0.999816316590953, -1.04234006450594
-0.999816349404491, -0.900514262299556
-0.857004648955889, -0.899437532190583
-0.714296799089414, -0.900093846030221
-0.571415467306642, -0.899979582475901
-0.428562407271818, -0.899999474586457
-0.285704414223076, -0.899995990965327
-0.14285727962508, -0.899996590654922
-2.34439844977084e-14, -0.899996464241191
0.142857279625033, -0.899996590654911
0.28570441422303, -0.899995990965296
0.428562407271828, -0.899999474586418
0.571415467306658, -0.899979582475859
0.714296799089429, -0.900093846030197
0.8570046489559, -0.899437532190571
0.999816349404503, -0.900514262299549
-1.00315177480903, -0.759693359630203
-0.860657082232535, -0.753750093677067
0.860657082232549, -0.753750093677057
1.00315177480904, -0.759693359630193
-1.01172581124019, -0.61922667215295
-0.868924596603259, -0.608222280144871
-0.726098069909594, -0.592324431675987
-0.584913192355302, -0.57763346192896
-0.443254342371735, -0.565219104557213
0.443254342371743, -0.565219104557227
0.584913192355311, -0.577633461928967
0.726098069909605, -0.592324431675988
0.86892459660327, -0.608222280144864
1.0117258112402, -0.619226672152938
-1.02394766383134, -0.477637945100448
-0.882288815544273, -0.465223592898204
-0.741114208888515, -0.450532623678529
-0.598277412400025, -0.434634774652751
-0.455476203929846, -0.423630377415679
0.455476203929848, -0.423630377415691
0.598277412400027, -0.434634774652759
0.741114208888517, -0.450532623678529
0.882288815544277, -0.465223592898197
1.02394766383134, -0.477637945100434
-0.606545191189455, -0.289107162864618
-0.464050496449354, -0.283163972018513
0.464050496449354, -0.283163972018522
0.606545191189455, -0.289107162864629
-0.610197551966542, -0.143419726505908
-0.467385851702745, -0.142343063879086
0.467385851702749, -0.142343063879092
0.610197551966545, -0.143419726505921
-0.610197519293278, 0.000559468464854382
-0.467385818842709, -0.000517262299003037
0.46738581884272, -0.000517262299009853
0.610197519293289, 0.00055946846484148
-0.60654508601409, 0.146257406321942
-0.464050393437613, 0.140314140368243
0.464050393437628, 0.140314140368233
0.606545086014104, 0.146257406321932
-1.02394782587527, 0.334777895442773
-0.882288975892574, 0.322363538070463
-0.741114368762147, 0.307672568325002
-0.598277571644034, 0.291774719855615
-0.455476357006878, 0.280770327847445
0.455476357006889, 0.280770327847433
0.598277571644045, 0.291774719855607
0.741114368762157, 0.307672568325003
0.882288975892583, 0.322363538070471
1.02394782587528, 0.334777895442787
-1.01172596431717, 0.476366622584309
-0.868924755846824, 0.46536222534682
-0.726098229783234, 0.449464376322461
-0.584913352703608, 0.434773407101234
-0.443254504415671, 0.422359054899566
0.443254504415675, 0.422359054899552
0.584913352703612, 0.434773407101227
0.726098229783237, 0.449464376322461
0.868924755846826, 0.465362225346828
1.01172596431717, 0.476366622584321
-1.00315167179758, 0.616833027982041
-0.86065697705785, 0.610889837136092
0.860656977057851, 0.610889837136103
1.00315167179758, 0.616833027982051
-0.999816316544202, 0.757664436119891
-0.857004616282738, 0.756587774148026
-0.714296772091646, 0.75724414739747
-0.571415445670936, 0.757129932516598
-0.428562391046385, 0.757149862485437
-0.2857044034043, 0.757146405910778
-0.142857274215227, 0.757147021828791
-1.27105510373399e-14, 0.757146900825322
0.142857274215201, 0.7571470218288
0.285704403404279, 0.757146405910823
0.42856239104638, 0.757149862485511
0.571415445670937, 0.757129932516635
0.714296772091647, 0.757244147397494
0.857004616282742, 0.756587774148039
0.999816316544206, 0.757664436119898
-0.99981634945131, 0.899479738327774
-0.85700464891141, 0.900556466451306
-0.714296799089429, 0.899900153971131
-0.57141546730664, 0.900014417525477
-0.428562407271818, 0.899994525414916
-0.285704414223076, 0.899998009036047
-0.14285727962508, 0.899997409346452
-2.34415924759134e-14, 0.899997535760182
0.142857279625033, 0.899997409346462
0.285704414223029, 0.899998009036078
0.428562407271829, 0.899994525414955
0.571415467306656, 0.900014417525519
0.714296799089443, 0.899900153971154
0.857004648911422, 0.900556466451319
0.999816349451322, 0.89947973832778