-0.997480644691433, -1.29035218471031
-0.856247434563448, -1.29445899125123
-0.714430124454619, -1.28978950237675
-0.571401953107555, -1.29059660702817
-0.428572388162954, -1.29045561248101
-0.285707886161404, -1.29048006525203
-0.14285945669525, -1.29047571065086
1.5450433585333e-13, -1.29047656725959
0.142859456695419, -1.29047571065274
0.285707886161683, -1.2904800652534
0.428572388163201, -1.29045561248186
0.571401953107735, -1.2905966070286
0.714430124454722, -1.28978950237692
0.856247434563489, -1.29445899125127
0.997480644691464, -1.29035218471031
-0.997480873614115, -1.14774044621877
-0.856247668138771, -1.14363312310944
-0.71443030710502, -1.14830222093778
-0.571402100806971, -1.14749478413514
-0.428572498738996, -1.14763552064348
-0.285707959903635, -1.1476108835152
-0.142859493565523, -1.14761512750999
-4.99667237852968e-13, -1.1476142340297
0.142859493565531, -1.14761512751168
0.285707959903394, -1.14761088351659
0.428572498738772, -1.14763552064432
0.571402100806812, -1.14749478413557
0.714430307104937, -1.14830222093794
0.856247668138751, -1.14363312310947
0.997480873614106, -1.14774044621877
-1.01110716725743, -1.01085430590315
-0.876037073620405, -0.97938077052349
0.876037073620385, -0.979380770523506
1.01110716725741, -1.01085430590316
-1.0558767844764, -0.890590451363386
-0.929655927340906, -0.815304990142736
-0.826494321639348, -0.692334549040226
-0.732858066760409, -0.593124999255998
-0.621051351584013, -0.512944916659956
0.621051351584027, -0.512944916659929
0.732858066760413, -0.59312499925598
0.826494321639339, -0.692334549040222
0.929655927340887, -0.815304990142746
1.05587678447638, -0.890590451363398
-1.13329045490845, -0.777530886561916
-1.0214838109119, -0.697350683651292
-0.927859833621648, -0.598141039082685
-0.824685856759988, -0.475170592657197
-0.698464921918189, -0.399885310819808
0.698464921918214, -0.399885310819786
0.824685856760005, -0.475170592657187
0.927859833621647, -0.59814103908269
1.02148381091188, -0.697350683651304
1.13329045490843, -0.777530886561924
-0.878306077011027, -0.311096066548084
-0.743235763499585, -0.279623294451353
0.743235763499622, -0.279623294451336
0.87830607701106, -0.311096066548072
-0.898094772372717, -0.146843785464185
-0.756861563446564, -0.142736964558735
0.756861563446594, -0.142736964558734
0.898094772372758, -0.146843785464154
-0.898094539397689, 0.0039821037669336
-0.756861333923689, -0.00012522399334399
0.75686133392368, -0.000125223993343469
0.898094539397669, 0.00398210376696551
-0.878305133914058, 0.168247840582872
-0.743235040279182, 0.136774305198844
0.74323504027916, 0.136774305198855
0.878305133914037, 0.168247840582889
-1.13329085595286, 0.634670305562293
-1.02148414078084, 0.554490222964385
-0.927860166301845, 0.4552806731914
-0.824686280196278, 0.33231023207717
-0.698465423061467, 0.257024770860064
0.698465423061448, 0.257024770860075
0.824686280196259, 0.33231023207718
0.927860166301836, 0.455280673191395
1.02148414078085, 0.554490222964367
1.13329085595287, 0.634670305562266
-1.05587728561867, 0.747729911402436
-0.92965635077595, 0.672444629557493
-0.826494654319537, 0.549474183148931
-0.732858396629371, 0.450264538569061
-0.621051752628455, 0.370084335660298
0.621051752628436, 0.370084335660306
0.732858396629357, 0.450264538569073
0.826494654319536, 0.549474183148936
0.929656350775968, 0.672444629557483
1.0558772856187, 0.747729911402414
-1.01110644403658, 0.867991927773946
-0.876036130527082, 0.836519155678469
0.876036130527115, 0.836519155678457
1.01110644403662, 0.867991927773929
-0.997480644090266, 1.00489164654627
-0.856247435164792, 1.00078483029211
-0.714430124454647, 1.00545433094744
-0.571401953107552, 1.00464722629582
-0.428572388162955, 1.00478822084302
-0.285707886161403, 1.00476376807199
-0.14285945669525, 1.00476812267316
1.54514606532142e-13, 1.00476726606444
0.142859456695419, 1.00476812267129
0.285707886161683, 1.00476376807062
0.428572388163202, 1.00478822084217
0.571401953107732, 1.0046472262954
0.71443012445475, 1.00545433094728
0.856247435164833, 1.00078483029208
0.997480644090296, 1.00489164654627
-0.997480874216138, 1.14748999615794
-0.85624766753801, 1.15159730955793
-0.714430307105059, 1.14692822351579
-0.571402100806968, 1.14773566031865
-0.428572498738997, 1.14759492381027
-0.285707959903635, 1.14761956093856
-0.142859493565523, 1.14761531694376
-4.99657269987331e-13, 1.14761621042406
0.142859493565531, 1.14761531694208
0.285707959903394, 1.14761956093717
0.428572498738773, 1.14759492380943
0.571402100806809, 1.14773566031822
0.714430307104976, 1.14692822351563
0.85624766753799, 1.1515973095579
0.997480874216128, 1.14748999615794