-0.99250366494793, -1.48417291607261
-0.855498838422939, -1.48326486678419
-0.714540734566472, -1.4749792186546
-0.571384947618165, -1.47640309713268
-0.4285776154917, -1.47615428321293
-0.285708535394449, -1.47619756168297
-0.142860174564679, -1.47618993848574
-2.99135251400743e-13, -1.47619147245837
0.142860174564821, -1.47618993848685
0.285708535394553, -1.47619756168359
0.428577615491795, -1.47615428321334
0.571384947618233, -1.47640309713289
0.714540734566507, -1.47497921865468
0.85549883842294, -1.4832648667842
0.992503664947926, -1.4841729160726
-0.992503831169546, -1.32534759862847
-0.855498983401795, -1.32625526397006
-0.71454084195937, -1.33454070040303
-0.571385035176295, -1.33311662510068
-0.428577680948063, -1.33336528625907
-0.285708579055773, -1.33332189863461
-0.142860196393697, -1.33332945634742
7.00781568992658e-13, -1.33332790054552
0.142860196393576, -1.3333294563481
0.285708579055625, -1.33332189863529
0.428577680947941, -1.33336528625947
0.571385035176198, -1.33311662510089
0.714540841959307, -1.33454070040311
0.855498983401766, -1.32625526397007
0.992503831169521, -1.32534759862847
-0.997651039962949, -1.16743148119109
-0.868640519428359, -1.14368706625379
0.86864051942833, -1.14368706625379
0.997651039962919, -1.1674314811911
-1.03778899563711, -1.04063433212385
-0.921056757635999, -0.94616426147997
-0.853578623220256, -0.765189244141574
-0.795465768899925, -0.63628771042701
-0.698180934504279, -0.539049423476751
0.698180934504272, -0.539049423476741
0.795465768899914, -0.636287710427004
0.85357862322024, -0.765189244141571
0.921056757635975, -0.946164261479972
1.03778899563708, -1.04063433212386
-1.12760798610587, -0.937140363055856
-1.03032329247315, -0.83990190685992
-0.972223243956191, -0.711000222949499
-0.904732186433631, -0.530025143729025
-0.787999787702208, -0.435555406838306
0.787999787702205, -0.4355554068383
0.904732186433625, -0.530025143729023
0.972223243956177, -0.711000222949501
1.03032329247313, -0.839901906859925
1.12760798610585, -0.937140363055864
-0.957149572933298, -0.332503864692745
-0.828138751909381, -0.308760508662812
0.828138751909382, -0.308760508662808
0.957149572933297, -0.33250386469274
-0.970290363130993, -0.149936011612889
-0.83328553983817, -0.150844045532785
0.833285539838166, -0.150844045532787
0.970290363130993, -0.149936011612877
-0.970290219766548, 0.00707363316207264
-0.833285372002323, 0.00798129026411522
0.833285372002298, 0.00798129026411275
0.970290219766519, 0.00707363316208475
-0.957148683739442, 0.189657378184826
-0.828138163208186, 0.165912963241511
0.828138163208156, 0.165912963241515
0.957148683739413, 0.18965737818483
-1.12760826866611, 0.794279465412148
-1.03032343427344, 0.697041178457312
-0.97222336048289, 0.568139644765197
-0.904732445537203, 0.387164627401894
-0.788000207533695, 0.292694556766865
0.788000207533668, 0.292694556766871
0.904732445537178, 0.387164627401896
0.972223360482873, 0.568139644765194
1.03032343427343, 0.697041178457306
1.12760826866611, 0.794279465412137
-1.03778941546818, 0.897773482050589
-0.921057016738246, 0.80330374514656
-0.853578739746953, 0.622328665957267
-0.795465910700229, 0.49342698202439
-0.69818121706454, 0.396188525833025
0.698181217064516, 0.396188525833033
0.795465910700208, 0.493426982024396
0.853578739746938, 0.62232866595727
0.92105701673824, 0.803303745146558
1.03778941546818, 0.897773482050583
-0.997650451259305, 1.02456838023047
-0.868639630238975, 1.00082502420132
0.868639630238975, 1.00082502420131
0.997650451259306, 1.02456838023047
-0.99250366333219, 1.18250039890389
-0.855498840040108, 1.18340844106089
-0.714540734566439, 1.19169411466381
-0.571384947618177, 1.19027023618533
-0.428577615491698, 1.19051905010516
-0.28570853539445, 1.1904757716351
-0.142860174564679, 1.19048339483233
-2.99105908021028e-13, 1.1904818608597
0.142860174564821, 1.19048339483122
0.285708535394554, 1.19047577163448
0.428577615491793, 1.19051905010474
0.571384947618246, 1.19027023618512
0.714540734566473, 1.19169411466374
0.855498840040109, 1.18340844106088
0.992503663332186, 1.18250039890389
-0.992503832786651, 1.34131016080428
-0.855498981786199, 1.34040248833934
-0.71454084195936, 1.33211707738964
-0.571385035176308, 1.33354115269242
-0.428577680948061, 1.33329249153396
-0.285708579055773, 1.33333587915843
-0.142860196393696, 1.33332832144562
7.00808534293943e-13, 1.33332987724752
0.142860196393576, 1.33332832144494
0.285708579055625, 1.33333587915775
0.428577680947939, 1.33329249153356
0.571385035176211, 1.33354115269221
0.714540841959297, 1.33211707738956
0.85549898178617, 1.34040248833933
0.992503832786626, 1.34131016080429